(kicad_sch (version 20211123) (generator eeschema)

  (uuid 645cb322-f977-4b95-8b00-6053793660be)

  (paper "A4")

  (title_block
    (title "Led projector in a food box.")
    (date "2023-06-12")
    (comment 2 "Mikhail Belkin (dltech174@gmail.com +7-960-961-54-27)")
  )

  (lib_symbols
    (symbol "Connector_Generic:Conn_01x01" (pin_names (offset 1.016) hide) (in_bom yes) (on_board yes)
      (property "Reference" "J" (id 0) (at 0 2.54 0)
        (effects (font (size 1.27 1.27)))
      )
      (property "Value" "Conn_01x01" (id 1) (at 0 -2.54 0)
        (effects (font (size 1.27 1.27)))
      )
      (property "Footprint" "" (id 2) (at 0 0 0)
        (effects (font (size 1.27 1.27)) hide)
      )
      (property "Datasheet" "~" (id 3) (at 0 0 0)
        (effects (font (size 1.27 1.27)) hide)
      )
      (property "ki_keywords" "connector" (id 4) (at 0 0 0)
        (effects (font (size 1.27 1.27)) hide)
      )
      (property "ki_description" "Generic connector, single row, 01x01, script generated (kicad-library-utils/schlib/autogen/connector/)" (id 5) (at 0 0 0)
        (effects (font (size 1.27 1.27)) hide)
      )
      (property "ki_fp_filters" "Connector*:*_1x??_*" (id 6) (at 0 0 0)
        (effects (font (size 1.27 1.27)) hide)
      )
      (symbol "Conn_01x01_1_1"
        (rectangle (start -1.27 0.127) (end 0 -0.127)
          (stroke (width 0.1524) (type default) (color 0 0 0 0))
          (fill (type none))
        )
        (rectangle (start -1.27 1.27) (end 1.27 -1.27)
          (stroke (width 0.254) (type default) (color 0 0 0 0))
          (fill (type background))
        )
        (pin passive line (at -5.08 0 0) (length 3.81)
          (name "Pin_1" (effects (font (size 1.27 1.27))))
          (number "1" (effects (font (size 1.27 1.27))))
        )
      )
    )
    (symbol "Device:C_Polarized_Small" (pin_numbers hide) (pin_names (offset 0.254) hide) (in_bom yes) (on_board yes)
      (property "Reference" "C" (id 0) (at 0.254 1.778 0)
        (effects (font (size 1.27 1.27)) (justify left))
      )
      (property "Value" "C_Polarized_Small" (id 1) (at 0.254 -2.032 0)
        (effects (font (size 1.27 1.27)) (justify left))
      )
      (property "Footprint" "" (id 2) (at 0 0 0)
        (effects (font (size 1.27 1.27)) hide)
      )
      (property "Datasheet" "~" (id 3) (at 0 0 0)
        (effects (font (size 1.27 1.27)) hide)
      )
      (property "ki_keywords" "cap capacitor" (id 4) (at 0 0 0)
        (effects (font (size 1.27 1.27)) hide)
      )
      (property "ki_description" "Polarized capacitor, small symbol" (id 5) (at 0 0 0)
        (effects (font (size 1.27 1.27)) hide)
      )
      (property "ki_fp_filters" "CP_*" (id 6) (at 0 0 0)
        (effects (font (size 1.27 1.27)) hide)
      )
      (symbol "C_Polarized_Small_0_1"
        (rectangle (start -1.524 -0.3048) (end 1.524 -0.6858)
          (stroke (width 0) (type default) (color 0 0 0 0))
          (fill (type outline))
        )
        (rectangle (start -1.524 0.6858) (end 1.524 0.3048)
          (stroke (width 0) (type default) (color 0 0 0 0))
          (fill (type none))
        )
        (polyline
          (pts
            (xy -1.27 1.524)
            (xy -0.762 1.524)
          )
          (stroke (width 0) (type default) (color 0 0 0 0))
          (fill (type none))
        )
        (polyline
          (pts
            (xy -1.016 1.27)
            (xy -1.016 1.778)
          )
          (stroke (width 0) (type default) (color 0 0 0 0))
          (fill (type none))
        )
      )
      (symbol "C_Polarized_Small_1_1"
        (pin passive line (at 0 2.54 270) (length 1.8542)
          (name "~" (effects (font (size 1.27 1.27))))
          (number "1" (effects (font (size 1.27 1.27))))
        )
        (pin passive line (at 0 -2.54 90) (length 1.8542)
          (name "~" (effects (font (size 1.27 1.27))))
          (number "2" (effects (font (size 1.27 1.27))))
        )
      )
    )
    (symbol "Device:C_Small" (pin_numbers hide) (pin_names (offset 0.254) hide) (in_bom yes) (on_board yes)
      (property "Reference" "C" (id 0) (at 0.254 1.778 0)
        (effects (font (size 1.27 1.27)) (justify left))
      )
      (property "Value" "C_Small" (id 1) (at 0.254 -2.032 0)
        (effects (font (size 1.27 1.27)) (justify left))
      )
      (property "Footprint" "" (id 2) (at 0 0 0)
        (effects (font (size 1.27 1.27)) hide)
      )
      (property "Datasheet" "~" (id 3) (at 0 0 0)
        (effects (font (size 1.27 1.27)) hide)
      )
      (property "ki_keywords" "capacitor cap" (id 4) (at 0 0 0)
        (effects (font (size 1.27 1.27)) hide)
      )
      (property "ki_description" "Unpolarized capacitor, small symbol" (id 5) (at 0 0 0)
        (effects (font (size 1.27 1.27)) hide)
      )
      (property "ki_fp_filters" "C_*" (id 6) (at 0 0 0)
        (effects (font (size 1.27 1.27)) hide)
      )
      (symbol "C_Small_0_1"
        (polyline
          (pts
            (xy -1.524 -0.508)
            (xy 1.524 -0.508)
          )
          (stroke (width 0.3302) (type default) (color 0 0 0 0))
          (fill (type none))
        )
        (polyline
          (pts
            (xy -1.524 0.508)
            (xy 1.524 0.508)
          )
          (stroke (width 0.3048) (type default) (color 0 0 0 0))
          (fill (type none))
        )
      )
      (symbol "C_Small_1_1"
        (pin passive line (at 0 2.54 270) (length 2.032)
          (name "~" (effects (font (size 1.27 1.27))))
          (number "1" (effects (font (size 1.27 1.27))))
        )
        (pin passive line (at 0 -2.54 90) (length 2.032)
          (name "~" (effects (font (size 1.27 1.27))))
          (number "2" (effects (font (size 1.27 1.27))))
        )
      )
    )
    (symbol "Device:D_Bridge_+-AA" (pin_names (offset 0)) (in_bom yes) (on_board yes)
      (property "Reference" "D" (id 0) (at 2.54 6.985 0)
        (effects (font (size 1.27 1.27)) (justify left))
      )
      (property "Value" "D_Bridge_+-AA" (id 1) (at 2.54 5.08 0)
        (effects (font (size 1.27 1.27)) (justify left))
      )
      (property "Footprint" "" (id 2) (at 0 0 0)
        (effects (font (size 1.27 1.27)) hide)
      )
      (property "Datasheet" "~" (id 3) (at 0 0 0)
        (effects (font (size 1.27 1.27)) hide)
      )
      (property "ki_keywords" "rectifier ACDC" (id 4) (at 0 0 0)
        (effects (font (size 1.27 1.27)) hide)
      )
      (property "ki_description" "Diode bridge, +ve/-ve/AC/AC" (id 5) (at 0 0 0)
        (effects (font (size 1.27 1.27)) hide)
      )
      (property "ki_fp_filters" "D*Bridge* D*Rectifier*" (id 6) (at 0 0 0)
        (effects (font (size 1.27 1.27)) hide)
      )
      (symbol "D_Bridge_+-AA_0_1"
        (circle (center -5.08 0) (radius 0.254)
          (stroke (width 0) (type default) (color 0 0 0 0))
          (fill (type outline))
        )
        (circle (center 0 -5.08) (radius 0.254)
          (stroke (width 0) (type default) (color 0 0 0 0))
          (fill (type outline))
        )
        (polyline
          (pts
            (xy -2.54 3.81)
            (xy -1.27 2.54)
          )
          (stroke (width 0.254) (type default) (color 0 0 0 0))
          (fill (type none))
        )
        (polyline
          (pts
            (xy -1.27 -2.54)
            (xy -2.54 -3.81)
          )
          (stroke (width 0.254) (type default) (color 0 0 0 0))
          (fill (type none))
        )
        (polyline
          (pts
            (xy 2.54 -1.27)
            (xy 3.81 -2.54)
          )
          (stroke (width 0.254) (type default) (color 0 0 0 0))
          (fill (type none))
        )
        (polyline
          (pts
            (xy 2.54 1.27)
            (xy 3.81 2.54)
          )
          (stroke (width 0.254) (type default) (color 0 0 0 0))
          (fill (type none))
        )
        (polyline
          (pts
            (xy -3.81 2.54)
            (xy -2.54 1.27)
            (xy -1.905 3.175)
            (xy -3.81 2.54)
          )
          (stroke (width 0.254) (type default) (color 0 0 0 0))
          (fill (type none))
        )
        (polyline
          (pts
            (xy -2.54 -1.27)
            (xy -3.81 -2.54)
            (xy -1.905 -3.175)
            (xy -2.54 -1.27)
          )
          (stroke (width 0.254) (type default) (color 0 0 0 0))
          (fill (type none))
        )
        (polyline
          (pts
            (xy 1.27 2.54)
            (xy 2.54 3.81)
            (xy 3.175 1.905)
            (xy 1.27 2.54)
          )
          (stroke (width 0.254) (type default) (color 0 0 0 0))
          (fill (type none))
        )
        (polyline
          (pts
            (xy 3.175 -1.905)
            (xy 1.27 -2.54)
            (xy 2.54 -3.81)
            (xy 3.175 -1.905)
          )
          (stroke (width 0.254) (type default) (color 0 0 0 0))
          (fill (type none))
        )
        (polyline
          (pts
            (xy -5.08 0)
            (xy 0 -5.08)
            (xy 5.08 0)
            (xy 0 5.08)
            (xy -5.08 0)
          )
          (stroke (width 0) (type default) (color 0 0 0 0))
          (fill (type none))
        )
        (circle (center 0 5.08) (radius 0.254)
          (stroke (width 0) (type default) (color 0 0 0 0))
          (fill (type outline))
        )
        (circle (center 5.08 0) (radius 0.254)
          (stroke (width 0) (type default) (color 0 0 0 0))
          (fill (type outline))
        )
      )
      (symbol "D_Bridge_+-AA_1_1"
        (pin passive line (at 7.62 0 180) (length 2.54)
          (name "+" (effects (font (size 1.27 1.27))))
          (number "1" (effects (font (size 1.27 1.27))))
        )
        (pin passive line (at -7.62 0 0) (length 2.54)
          (name "-" (effects (font (size 1.27 1.27))))
          (number "2" (effects (font (size 1.27 1.27))))
        )
        (pin passive line (at 0 7.62 270) (length 2.54)
          (name "~" (effects (font (size 1.27 1.27))))
          (number "3" (effects (font (size 1.27 1.27))))
        )
        (pin passive line (at 0 -7.62 90) (length 2.54)
          (name "~" (effects (font (size 1.27 1.27))))
          (number "4" (effects (font (size 1.27 1.27))))
        )
      )
    )
    (symbol "Device:LED" (pin_numbers hide) (pin_names (offset 1.016) hide) (in_bom yes) (on_board yes)
      (property "Reference" "D" (id 0) (at 0 2.54 0)
        (effects (font (size 1.27 1.27)))
      )
      (property "Value" "LED" (id 1) (at 0 -2.54 0)
        (effects (font (size 1.27 1.27)))
      )
      (property "Footprint" "" (id 2) (at 0 0 0)
        (effects (font (size 1.27 1.27)) hide)
      )
      (property "Datasheet" "~" (id 3) (at 0 0 0)
        (effects (font (size 1.27 1.27)) hide)
      )
      (property "ki_keywords" "LED diode" (id 4) (at 0 0 0)
        (effects (font (size 1.27 1.27)) hide)
      )
      (property "ki_description" "Light emitting diode" (id 5) (at 0 0 0)
        (effects (font (size 1.27 1.27)) hide)
      )
      (property "ki_fp_filters" "LED* LED_SMD:* LED_THT:*" (id 6) (at 0 0 0)
        (effects (font (size 1.27 1.27)) hide)
      )
      (symbol "LED_0_1"
        (polyline
          (pts
            (xy -1.27 -1.27)
            (xy -1.27 1.27)
          )
          (stroke (width 0.254) (type default) (color 0 0 0 0))
          (fill (type none))
        )
        (polyline
          (pts
            (xy -1.27 0)
            (xy 1.27 0)
          )
          (stroke (width 0) (type default) (color 0 0 0 0))
          (fill (type none))
        )
        (polyline
          (pts
            (xy 1.27 -1.27)
            (xy 1.27 1.27)
            (xy -1.27 0)
            (xy 1.27 -1.27)
          )
          (stroke (width 0.254) (type default) (color 0 0 0 0))
          (fill (type none))
        )
        (polyline
          (pts
            (xy -3.048 -0.762)
            (xy -4.572 -2.286)
            (xy -3.81 -2.286)
            (xy -4.572 -2.286)
            (xy -4.572 -1.524)
          )
          (stroke (width 0) (type default) (color 0 0 0 0))
          (fill (type none))
        )
        (polyline
          (pts
            (xy -1.778 -0.762)
            (xy -3.302 -2.286)
            (xy -2.54 -2.286)
            (xy -3.302 -2.286)
            (xy -3.302 -1.524)
          )
          (stroke (width 0) (type default) (color 0 0 0 0))
          (fill (type none))
        )
      )
      (symbol "LED_1_1"
        (pin passive line (at -3.81 0 0) (length 2.54)
          (name "K" (effects (font (size 1.27 1.27))))
          (number "1" (effects (font (size 1.27 1.27))))
        )
        (pin passive line (at 3.81 0 180) (length 2.54)
          (name "A" (effects (font (size 1.27 1.27))))
          (number "2" (effects (font (size 1.27 1.27))))
        )
      )
    )
    (symbol "Device:R" (pin_numbers hide) (pin_names (offset 0)) (in_bom yes) (on_board yes)
      (property "Reference" "R" (id 0) (at 2.032 0 90)
        (effects (font (size 1.27 1.27)))
      )
      (property "Value" "R" (id 1) (at 0 0 90)
        (effects (font (size 1.27 1.27)))
      )
      (property "Footprint" "" (id 2) (at -1.778 0 90)
        (effects (font (size 1.27 1.27)) hide)
      )
      (property "Datasheet" "~" (id 3) (at 0 0 0)
        (effects (font (size 1.27 1.27)) hide)
      )
      (property "ki_keywords" "R res resistor" (id 4) (at 0 0 0)
        (effects (font (size 1.27 1.27)) hide)
      )
      (property "ki_description" "Resistor" (id 5) (at 0 0 0)
        (effects (font (size 1.27 1.27)) hide)
      )
      (property "ki_fp_filters" "R_*" (id 6) (at 0 0 0)
        (effects (font (size 1.27 1.27)) hide)
      )
      (symbol "R_0_1"
        (rectangle (start -1.016 -2.54) (end 1.016 2.54)
          (stroke (width 0.254) (type default) (color 0 0 0 0))
          (fill (type none))
        )
      )
      (symbol "R_1_1"
        (pin passive line (at 0 3.81 270) (length 1.27)
          (name "~" (effects (font (size 1.27 1.27))))
          (number "1" (effects (font (size 1.27 1.27))))
        )
        (pin passive line (at 0 -3.81 90) (length 1.27)
          (name "~" (effects (font (size 1.27 1.27))))
          (number "2" (effects (font (size 1.27 1.27))))
        )
      )
    )
    (symbol "Device:Transformer_1P_1S" (pin_names (offset 1.016) hide) (in_bom yes) (on_board yes)
      (property "Reference" "T" (id 0) (at 0 6.35 0)
        (effects (font (size 1.27 1.27)))
      )
      (property "Value" "Transformer_1P_1S" (id 1) (at 0 -7.62 0)
        (effects (font (size 1.27 1.27)))
      )
      (property "Footprint" "" (id 2) (at 0 0 0)
        (effects (font (size 1.27 1.27)) hide)
      )
      (property "Datasheet" "~" (id 3) (at 0 0 0)
        (effects (font (size 1.27 1.27)) hide)
      )
      (property "ki_keywords" "transformer coil magnet" (id 4) (at 0 0 0)
        (effects (font (size 1.27 1.27)) hide)
      )
      (property "ki_description" "Transformer, single primary, single secondary" (id 5) (at 0 0 0)
        (effects (font (size 1.27 1.27)) hide)
      )
      (symbol "Transformer_1P_1S_0_1"
        (arc (start -2.54 -5.0546) (mid -1.6599 -4.6901) (end -1.27 -3.81)
          (stroke (width 0) (type default) (color 0 0 0 0))
          (fill (type none))
        )
        (arc (start -2.54 -2.5146) (mid -1.6599 -2.1501) (end -1.27 -1.27)
          (stroke (width 0) (type default) (color 0 0 0 0))
          (fill (type none))
        )
        (arc (start -2.54 0.0254) (mid -1.6599 0.3899) (end -1.27 1.27)
          (stroke (width 0) (type default) (color 0 0 0 0))
          (fill (type none))
        )
        (arc (start -2.54 2.5654) (mid -1.6599 2.9299) (end -1.27 3.81)
          (stroke (width 0) (type default) (color 0 0 0 0))
          (fill (type none))
        )
        (arc (start -1.27 -3.81) (mid -1.642 -2.912) (end -2.54 -2.54)
          (stroke (width 0) (type default) (color 0 0 0 0))
          (fill (type none))
        )
        (arc (start -1.27 -1.27) (mid -1.642 -0.372) (end -2.54 0)
          (stroke (width 0) (type default) (color 0 0 0 0))
          (fill (type none))
        )
        (arc (start -1.27 1.27) (mid -1.642 2.168) (end -2.54 2.54)
          (stroke (width 0) (type default) (color 0 0 0 0))
          (fill (type none))
        )
        (arc (start -1.27 3.81) (mid -1.642 4.708) (end -2.54 5.08)
          (stroke (width 0) (type default) (color 0 0 0 0))
          (fill (type none))
        )
        (polyline
          (pts
            (xy -0.635 5.08)
            (xy -0.635 -5.08)
          )
          (stroke (width 0) (type default) (color 0 0 0 0))
          (fill (type none))
        )
        (polyline
          (pts
            (xy 0.635 -5.08)
            (xy 0.635 5.08)
          )
          (stroke (width 0) (type default) (color 0 0 0 0))
          (fill (type none))
        )
        (arc (start 1.2954 -1.27) (mid 1.6599 -2.1501) (end 2.54 -2.5146)
          (stroke (width 0) (type default) (color 0 0 0 0))
          (fill (type none))
        )
        (arc (start 1.2954 1.27) (mid 1.6599 0.3899) (end 2.54 0.0254)
          (stroke (width 0) (type default) (color 0 0 0 0))
          (fill (type none))
        )
        (arc (start 1.2954 3.81) (mid 1.6599 2.9299) (end 2.54 2.5654)
          (stroke (width 0) (type default) (color 0 0 0 0))
          (fill (type none))
        )
        (arc (start 1.3208 -3.81) (mid 1.6853 -4.6901) (end 2.5654 -5.0546)
          (stroke (width 0) (type default) (color 0 0 0 0))
          (fill (type none))
        )
        (arc (start 2.54 0) (mid 1.642 -0.372) (end 1.2954 -1.27)
          (stroke (width 0) (type default) (color 0 0 0 0))
          (fill (type none))
        )
        (arc (start 2.54 2.54) (mid 1.642 2.168) (end 1.2954 1.27)
          (stroke (width 0) (type default) (color 0 0 0 0))
          (fill (type none))
        )
        (arc (start 2.54 5.08) (mid 1.642 4.708) (end 1.2954 3.81)
          (stroke (width 0) (type default) (color 0 0 0 0))
          (fill (type none))
        )
        (arc (start 2.5654 -2.54) (mid 1.6674 -2.912) (end 1.3208 -3.81)
          (stroke (width 0) (type default) (color 0 0 0 0))
          (fill (type none))
        )
      )
      (symbol "Transformer_1P_1S_1_1"
        (pin passive line (at -10.16 5.08 0) (length 7.62)
          (name "AA" (effects (font (size 1.27 1.27))))
          (number "1" (effects (font (size 1.27 1.27))))
        )
        (pin passive line (at -10.16 -5.08 0) (length 7.62)
          (name "AB" (effects (font (size 1.27 1.27))))
          (number "2" (effects (font (size 1.27 1.27))))
        )
        (pin passive line (at 10.16 -5.08 180) (length 7.62)
          (name "SA" (effects (font (size 1.27 1.27))))
          (number "3" (effects (font (size 1.27 1.27))))
        )
        (pin passive line (at 10.16 5.08 180) (length 7.62)
          (name "SB" (effects (font (size 1.27 1.27))))
          (number "4" (effects (font (size 1.27 1.27))))
        )
      )
    )
    (symbol "Diode:1N5822" (pin_numbers hide) (pin_names (offset 1.016) hide) (in_bom yes) (on_board yes)
      (property "Reference" "D" (id 0) (at 0 2.54 0)
        (effects (font (size 1.27 1.27)))
      )
      (property "Value" "1N5822" (id 1) (at 0 -2.54 0)
        (effects (font (size 1.27 1.27)))
      )
      (property "Footprint" "Diode_THT:D_DO-201AD_P15.24mm_Horizontal" (id 2) (at 0 -4.445 0)
        (effects (font (size 1.27 1.27)) hide)
      )
      (property "Datasheet" "http://www.vishay.com/docs/88526/1n5820.pdf" (id 3) (at 0 0 0)
        (effects (font (size 1.27 1.27)) hide)
      )
      (property "ki_keywords" "diode Schottky" (id 4) (at 0 0 0)
        (effects (font (size 1.27 1.27)) hide)
      )
      (property "ki_description" "40V 3A Schottky Barrier Rectifier Diode, DO-201AD" (id 5) (at 0 0 0)
        (effects (font (size 1.27 1.27)) hide)
      )
      (property "ki_fp_filters" "D*DO?201AD*" (id 6) (at 0 0 0)
        (effects (font (size 1.27 1.27)) hide)
      )
      (symbol "1N5822_0_1"
        (polyline
          (pts
            (xy 1.27 0)
            (xy -1.27 0)
          )
          (stroke (width 0) (type default) (color 0 0 0 0))
          (fill (type none))
        )
        (polyline
          (pts
            (xy 1.27 1.27)
            (xy 1.27 -1.27)
            (xy -1.27 0)
            (xy 1.27 1.27)
          )
          (stroke (width 0.254) (type default) (color 0 0 0 0))
          (fill (type none))
        )
        (polyline
          (pts
            (xy -1.905 0.635)
            (xy -1.905 1.27)
            (xy -1.27 1.27)
            (xy -1.27 -1.27)
            (xy -0.635 -1.27)
            (xy -0.635 -0.635)
          )
          (stroke (width 0.254) (type default) (color 0 0 0 0))
          (fill (type none))
        )
      )
      (symbol "1N5822_1_1"
        (pin passive line (at -3.81 0 0) (length 2.54)
          (name "K" (effects (font (size 1.27 1.27))))
          (number "1" (effects (font (size 1.27 1.27))))
        )
        (pin passive line (at 3.81 0 180) (length 2.54)
          (name "A" (effects (font (size 1.27 1.27))))
          (number "2" (effects (font (size 1.27 1.27))))
        )
      )
    )
    (symbol "Diode:US1A" (pin_numbers hide) (pin_names hide) (in_bom yes) (on_board yes)
      (property "Reference" "D" (id 0) (at 0 2.54 0)
        (effects (font (size 1.27 1.27)))
      )
      (property "Value" "US1A" (id 1) (at 0 -2.54 0)
        (effects (font (size 1.27 1.27)))
      )
      (property "Footprint" "Diode_SMD:D_SMA" (id 2) (at 0 -4.445 0)
        (effects (font (size 1.27 1.27)) hide)
      )
      (property "Datasheet" "https://www.diodes.com/assets/Datasheets/ds16008.pdf" (id 3) (at 0 0 0)
        (effects (font (size 1.27 1.27)) hide)
      )
      (property "ki_keywords" "Ultra Fast" (id 4) (at 0 0 0)
        (effects (font (size 1.27 1.27)) hide)
      )
      (property "ki_description" "50V, 1A, General Purpose Rectifier Diode, SMA(DO-214AC)" (id 5) (at 0 0 0)
        (effects (font (size 1.27 1.27)) hide)
      )
      (property "ki_fp_filters" "D*SMA*" (id 6) (at 0 0 0)
        (effects (font (size 1.27 1.27)) hide)
      )
      (symbol "US1A_0_1"
        (polyline
          (pts
            (xy -1.27 1.27)
            (xy -1.27 -1.27)
          )
          (stroke (width 0.254) (type default) (color 0 0 0 0))
          (fill (type none))
        )
        (polyline
          (pts
            (xy 1.27 0)
            (xy -1.27 0)
          )
          (stroke (width 0) (type default) (color 0 0 0 0))
          (fill (type none))
        )
        (polyline
          (pts
            (xy 1.27 1.27)
            (xy 1.27 -1.27)
            (xy -1.27 0)
            (xy 1.27 1.27)
          )
          (stroke (width 0.254) (type default) (color 0 0 0 0))
          (fill (type none))
        )
      )
      (symbol "US1A_1_1"
        (pin passive line (at -3.81 0 0) (length 2.54)
          (name "K" (effects (font (size 1.27 1.27))))
          (number "1" (effects (font (size 1.27 1.27))))
        )
        (pin passive line (at 3.81 0 180) (length 2.54)
          (name "A" (effects (font (size 1.27 1.27))))
          (number "2" (effects (font (size 1.27 1.27))))
        )
      )
    )
    (symbol "belkin:BP3133" (in_bom yes) (on_board yes)
      (property "Reference" "U" (id 0) (at 3.81 5.08 0)
        (effects (font (size 1.27 1.27)))
      )
      (property "Value" "BP3133" (id 1) (at -1.905 5.08 0)
        (effects (font (size 1.27 1.27)))
      )
      (property "Footprint" "Package_SO:SO-8_3.9x4.9mm_P1.27mm" (id 2) (at 0 -6.35 0)
        (effects (font (size 1.27 1.27)) hide)
      )
      (property "Datasheet" "" (id 3) (at 0 0.635 0)
        (effects (font (size 1.27 1.27)) hide)
      )
      (symbol "BP3133_0_1"
        (rectangle (start -5.08 3.81) (end 5.08 -5.08)
          (stroke (width 0) (type default) (color 0 0 0 0))
          (fill (type none))
        )
      )
      (symbol "BP3133_1_1"
        (pin input line (at -7.62 -1.27 0) (length 2.54)
          (name "CS" (effects (font (size 1.27 1.27))))
          (number "1" (effects (font (size 1.27 1.27))))
        )
        (pin power_in line (at -7.62 2.54 0) (length 2.54)
          (name "Vcc" (effects (font (size 1.27 1.27))))
          (number "2" (effects (font (size 1.27 1.27))))
        )
        (pin power_in line (at 7.62 -3.81 180) (length 2.54)
          (name "GND" (effects (font (size 1.27 1.27))))
          (number "3" (effects (font (size 1.27 1.27))))
        )
        (pin input line (at -7.62 -3.81 0) (length 2.54)
          (name "RVOP" (effects (font (size 1.27 1.27))))
          (number "4" (effects (font (size 1.27 1.27))))
        )
        (pin output line (at 7.62 2.54 180) (length 2.54)
          (name "DRAIN" (effects (font (size 1.27 1.27))))
          (number "7" (effects (font (size 1.27 1.27))))
        )
        (pin output line (at 7.62 0 180) (length 2.54)
          (name "DRAIN" (effects (font (size 1.27 1.27))))
          (number "8" (effects (font (size 1.27 1.27))))
        )
      )
    )
    (symbol "power:GND" (power) (pin_names (offset 0)) (in_bom yes) (on_board yes)
      (property "Reference" "#PWR" (id 0) (at 0 -6.35 0)
        (effects (font (size 1.27 1.27)) hide)
      )
      (property "Value" "GND" (id 1) (at 0 -3.81 0)
        (effects (font (size 1.27 1.27)))
      )
      (property "Footprint" "" (id 2) (at 0 0 0)
        (effects (font (size 1.27 1.27)) hide)
      )
      (property "Datasheet" "" (id 3) (at 0 0 0)
        (effects (font (size 1.27 1.27)) hide)
      )
      (property "ki_keywords" "global power" (id 4) (at 0 0 0)
        (effects (font (size 1.27 1.27)) hide)
      )
      (property "ki_description" "Power symbol creates a global label with name \"GND\" , ground" (id 5) (at 0 0 0)
        (effects (font (size 1.27 1.27)) hide)
      )
      (symbol "GND_0_1"
        (polyline
          (pts
            (xy 0 0)
            (xy 0 -1.27)
            (xy 1.27 -1.27)
            (xy 0 -2.54)
            (xy -1.27 -1.27)
            (xy 0 -1.27)
          )
          (stroke (width 0) (type default) (color 0 0 0 0))
          (fill (type none))
        )
      )
      (symbol "GND_1_1"
        (pin power_in line (at 0 0 270) (length 0) hide
          (name "GND" (effects (font (size 1.27 1.27))))
          (number "1" (effects (font (size 1.27 1.27))))
        )
      )
    )
    (symbol "power:GNDREF" (power) (pin_names (offset 0)) (in_bom yes) (on_board yes)
      (property "Reference" "#PWR" (id 0) (at 0 -6.35 0)
        (effects (font (size 1.27 1.27)) hide)
      )
      (property "Value" "GNDREF" (id 1) (at 0 -3.81 0)
        (effects (font (size 1.27 1.27)))
      )
      (property "Footprint" "" (id 2) (at 0 0 0)
        (effects (font (size 1.27 1.27)) hide)
      )
      (property "Datasheet" "" (id 3) (at 0 0 0)
        (effects (font (size 1.27 1.27)) hide)
      )
      (property "ki_keywords" "global power" (id 4) (at 0 0 0)
        (effects (font (size 1.27 1.27)) hide)
      )
      (property "ki_description" "Power symbol creates a global label with name \"GNDREF\" , reference supply ground" (id 5) (at 0 0 0)
        (effects (font (size 1.27 1.27)) hide)
      )
      (symbol "GNDREF_0_1"
        (polyline
          (pts
            (xy -0.635 -1.905)
            (xy 0.635 -1.905)
          )
          (stroke (width 0) (type default) (color 0 0 0 0))
          (fill (type none))
        )
        (polyline
          (pts
            (xy -0.127 -2.54)
            (xy 0.127 -2.54)
          )
          (stroke (width 0) (type default) (color 0 0 0 0))
          (fill (type none))
        )
        (polyline
          (pts
            (xy 0 -1.27)
            (xy 0 0)
          )
          (stroke (width 0) (type default) (color 0 0 0 0))
          (fill (type none))
        )
        (polyline
          (pts
            (xy 1.27 -1.27)
            (xy -1.27 -1.27)
          )
          (stroke (width 0) (type default) (color 0 0 0 0))
          (fill (type none))
        )
      )
      (symbol "GNDREF_1_1"
        (pin power_in line (at 0 0 270) (length 0) hide
          (name "GNDREF" (effects (font (size 1.27 1.27))))
          (number "1" (effects (font (size 1.27 1.27))))
        )
      )
    )
  )

  (junction (at 58.166 60.198) (diameter 0) (color 0 0 0 0)
    (uuid 03580611-9925-435c-bffb-87cd116eb686)
  )
  (junction (at 123.19 39.878) (diameter 0) (color 0 0 0 0)
    (uuid 0a8aa733-8362-4fd2-9951-80ac3bd451df)
  )
  (junction (at 67.564 60.198) (diameter 0) (color 0 0 0 0)
    (uuid 18167696-6475-46ba-95b2-46cafab17578)
  )
  (junction (at 123.19 29.718) (diameter 0) (color 0 0 0 0)
    (uuid 18790eb9-2ce3-41ce-9add-bb931c668d9b)
  )
  (junction (at 63.754 26.162) (diameter 0) (color 0 0 0 0)
    (uuid 1b1e652b-85da-4ae3-b2d7-d104d8f4b771)
  )
  (junction (at 89.408 45.212) (diameter 0) (color 0 0 0 0)
    (uuid 1bcc66d1-f9bf-4707-96ef-cf7b363680dc)
  )
  (junction (at 67.564 26.162) (diameter 0) (color 0 0 0 0)
    (uuid 211aebee-4457-4668-b05b-861a7f24c928)
  )
  (junction (at 87.884 26.162) (diameter 0) (color 0 0 0 0)
    (uuid 227bf2b5-1b8e-4e71-a13a-c45dd708bb6c)
  )
  (junction (at 128.016 29.718) (diameter 0) (color 0 0 0 0)
    (uuid 22fa0623-3535-445a-b60d-e1a2174ff579)
  )
  (junction (at 90.932 26.162) (diameter 0) (color 0 0 0 0)
    (uuid 27e0dbcb-586a-4fa2-8c22-9153faf68fa7)
  )
  (junction (at 67.564 45.212) (diameter 0) (color 0 0 0 0)
    (uuid 2c2ecf8b-9c4e-41bd-9d50-2ffb830be2af)
  )
  (junction (at 128.016 39.878) (diameter 0) (color 0 0 0 0)
    (uuid 2fe3e597-5995-4214-898a-75236ce15228)
  )
  (junction (at 89.408 43.434) (diameter 0) (color 0 0 0 0)
    (uuid 3d0b26f9-cf65-44c9-b58d-ecabf591d025)
  )
  (junction (at 93.472 26.162) (diameter 0) (color 0 0 0 0)
    (uuid 3ec6fc6b-aa77-4353-80dd-4936b87b9c5c)
  )
  (junction (at 73.152 60.198) (diameter 0) (color 0 0 0 0)
    (uuid b3747003-406e-472b-9c30-e3b70e179c01)
  )
  (junction (at 70.612 60.198) (diameter 0) (color 0 0 0 0)
    (uuid b6541291-5c57-4601-aee0-76c30876cc2c)
  )
  (junction (at 114.808 39.878) (diameter 0) (color 0 0 0 0)
    (uuid b6bb4202-9ab2-44fc-b926-c7643c8896bf)
  )
  (junction (at 89.408 34.798) (diameter 0) (color 0 0 0 0)
    (uuid db65bfca-5e4b-4d55-837c-6629f73edf66)
  )
  (junction (at 58.166 26.162) (diameter 0) (color 0 0 0 0)
    (uuid eb045b06-6561-4215-92dc-2572e761eb41)
  )
  (junction (at 63.754 60.198) (diameter 0) (color 0 0 0 0)
    (uuid ef529fbe-e104-4820-a306-290c7dfe38d6)
  )

  (wire (pts (xy 128.016 39.878) (xy 131.318 39.878))
    (stroke (width 0) (type default) (color 0 0 0 0))
    (uuid 06752d97-c92e-479d-814a-4473afe30ca4)
  )
  (wire (pts (xy 93.472 39.878) (xy 93.472 43.434))
    (stroke (width 0) (type default) (color 0 0 0 0))
    (uuid 08c3e072-5a8e-428c-96b9-d00d9c7b42d8)
  )
  (wire (pts (xy 90.932 34.798) (xy 90.932 33.02))
    (stroke (width 0) (type default) (color 0 0 0 0))
    (uuid 0922de04-4501-4aea-a21c-d65780057266)
  )
  (wire (pts (xy 131.318 29.718) (xy 131.318 30.48))
    (stroke (width 0) (type default) (color 0 0 0 0))
    (uuid 0e74e5c0-f413-43ad-9369-eb495ef24d93)
  )
  (wire (pts (xy 123.19 39.878) (xy 114.808 39.878))
    (stroke (width 0) (type default) (color 0 0 0 0))
    (uuid 0eebdb84-592a-4c99-b51c-63ad754ccc23)
  )
  (wire (pts (xy 93.98 29.718) (xy 93.472 29.718))
    (stroke (width 0) (type default) (color 0 0 0 0))
    (uuid 134f6384-ea17-44f4-b21d-e74e1cebb178)
  )
  (wire (pts (xy 49.276 60.198) (xy 58.166 60.198))
    (stroke (width 0) (type default) (color 0 0 0 0))
    (uuid 13d88f9c-2e45-4621-ab41-641cc2b896d2)
  )
  (wire (pts (xy 114.808 39.878) (xy 114.3 39.878))
    (stroke (width 0) (type default) (color 0 0 0 0))
    (uuid 161e9f28-571e-4602-88d1-bf4ae43a2fdf)
  )
  (wire (pts (xy 57.404 58.166) (xy 57.404 50.038))
    (stroke (width 0) (type default) (color 0 0 0 0))
    (uuid 1e3db0c5-9c27-4705-8b6a-b3a6e164ccdd)
  )
  (wire (pts (xy 63.754 47.498) (xy 63.754 60.198))
    (stroke (width 0) (type default) (color 0 0 0 0))
    (uuid 1f250a6a-671d-43e8-bdc8-423241b03e48)
  )
  (wire (pts (xy 58.166 60.198) (xy 63.754 60.198))
    (stroke (width 0) (type default) (color 0 0 0 0))
    (uuid 229bc7b7-14ca-4009-bd50-53965785f295)
  )
  (wire (pts (xy 123.19 29.718) (xy 123.19 32.004))
    (stroke (width 0) (type default) (color 0 0 0 0))
    (uuid 24876b7a-a111-48fc-a971-9e10a4a917e2)
  )
  (wire (pts (xy 90.932 26.162) (xy 93.472 26.162))
    (stroke (width 0) (type default) (color 0 0 0 0))
    (uuid 24a066a5-bbc5-40db-aff1-e78e4c8b86a4)
  )
  (wire (pts (xy 40.386 58.166) (xy 40.894 58.166))
    (stroke (width 0) (type default) (color 0 0 0 0))
    (uuid 25138d8b-b20a-4f13-906d-8ba705b5dcd4)
  )
  (wire (pts (xy 122.682 29.718) (xy 123.19 29.718))
    (stroke (width 0) (type default) (color 0 0 0 0))
    (uuid 286924ba-e4cb-4706-8309-f0a77339b2a9)
  )
  (wire (pts (xy 67.564 60.198) (xy 67.564 60.706))
    (stroke (width 0) (type default) (color 0 0 0 0))
    (uuid 2a46bd13-f8a3-4424-a1c8-aed7bfdd10c8)
  )
  (wire (pts (xy 128.016 37.084) (xy 128.016 39.878))
    (stroke (width 0) (type default) (color 0 0 0 0))
    (uuid 2abe70cf-2dfa-466c-947a-8c1d2d3a9e71)
  )
  (wire (pts (xy 70.612 57.15) (xy 70.612 60.198))
    (stroke (width 0) (type default) (color 0 0 0 0))
    (uuid 3b1513a5-08e6-401c-87b8-7b6bc52394ee)
  )
  (wire (pts (xy 58.166 42.418) (xy 58.166 26.162))
    (stroke (width 0) (type default) (color 0 0 0 0))
    (uuid 4726d7d2-1aff-4767-bb6f-a5483b226e8e)
  )
  (wire (pts (xy 73.152 59.69) (xy 73.152 60.198))
    (stroke (width 0) (type default) (color 0 0 0 0))
    (uuid 47e204cc-7589-4227-980e-4c9cbb3b21ae)
  )
  (wire (pts (xy 89.408 34.798) (xy 90.932 34.798))
    (stroke (width 0) (type default) (color 0 0 0 0))
    (uuid 4dda5ca3-cf83-484b-929e-60c7a5d08ca3)
  )
  (wire (pts (xy 63.754 26.162) (xy 67.564 26.162))
    (stroke (width 0) (type default) (color 0 0 0 0))
    (uuid 4e4441e1-2865-48b2-81ab-6425b31e4274)
  )
  (wire (pts (xy 58.166 26.162) (xy 63.754 26.162))
    (stroke (width 0) (type default) (color 0 0 0 0))
    (uuid 58d72f30-9491-4f8b-9aab-dc774a9e8724)
  )
  (wire (pts (xy 67.564 26.162) (xy 67.564 37.084))
    (stroke (width 0) (type default) (color 0 0 0 0))
    (uuid 5b0f3838-4cc9-42b0-8a21-19661c873261)
  )
  (wire (pts (xy 67.564 45.212) (xy 73.66 45.212))
    (stroke (width 0) (type default) (color 0 0 0 0))
    (uuid 5be87a2b-db41-4752-8298-b53e0c080cab)
  )
  (wire (pts (xy 49.276 57.658) (xy 49.276 60.198))
    (stroke (width 0) (type default) (color 0 0 0 0))
    (uuid 62cd5655-966d-451f-b76a-4451ea6d854d)
  )
  (wire (pts (xy 88.9 45.212) (xy 89.408 45.212))
    (stroke (width 0) (type default) (color 0 0 0 0))
    (uuid 63af581e-6563-4ebc-a89d-1ec75c2edc30)
  )
  (wire (pts (xy 93.472 26.162) (xy 101.6 26.162))
    (stroke (width 0) (type default) (color 0 0 0 0))
    (uuid 64acb47e-296b-4658-9c4f-ee1d1395c952)
  )
  (wire (pts (xy 88.9 51.562) (xy 89.408 51.562))
    (stroke (width 0) (type default) (color 0 0 0 0))
    (uuid 67055b27-2a55-4c64-9ccb-d2a538877454)
  )
  (wire (pts (xy 89.408 42.926) (xy 89.408 43.434))
    (stroke (width 0) (type default) (color 0 0 0 0))
    (uuid 67d06309-868d-49b7-a926-393800a55a4b)
  )
  (wire (pts (xy 57.404 50.038) (xy 56.896 50.038))
    (stroke (width 0) (type default) (color 0 0 0 0))
    (uuid 6cdc2d45-ff3e-4acb-9fc8-f0c4ed80b2a8)
  )
  (wire (pts (xy 63.754 42.418) (xy 63.754 26.162))
    (stroke (width 0) (type default) (color 0 0 0 0))
    (uuid 6d04a7e5-f3b0-4d0c-8461-1dd50e2f8d6b)
  )
  (wire (pts (xy 87.884 34.29) (xy 87.884 34.798))
    (stroke (width 0) (type default) (color 0 0 0 0))
    (uuid 6f4d517c-3326-499a-9644-a94eabb78274)
  )
  (wire (pts (xy 89.408 43.434) (xy 93.472 43.434))
    (stroke (width 0) (type default) (color 0 0 0 0))
    (uuid 6fb6f59c-73bf-4f91-8d37-f0a86541ba7c)
  )
  (wire (pts (xy 123.19 39.878) (xy 123.19 40.386))
    (stroke (width 0) (type default) (color 0 0 0 0))
    (uuid 70fea224-883d-49f6-977e-a317c349667d)
  )
  (wire (pts (xy 58.166 47.498) (xy 58.166 60.198))
    (stroke (width 0) (type default) (color 0 0 0 0))
    (uuid 7a66ebf2-b869-467a-b06b-4bbe55eb25f6)
  )
  (wire (pts (xy 73.152 60.198) (xy 70.612 60.198))
    (stroke (width 0) (type default) (color 0 0 0 0))
    (uuid 7c46f1f5-677b-4e4a-92cf-7d33cd7ccb33)
  )
  (wire (pts (xy 90.932 26.162) (xy 90.932 27.94))
    (stroke (width 0) (type default) (color 0 0 0 0))
    (uuid 80f6d647-5a98-43f3-a9e3-1f9067eb6329)
  )
  (wire (pts (xy 93.472 26.162) (xy 93.472 29.718))
    (stroke (width 0) (type default) (color 0 0 0 0))
    (uuid 82cc78c4-98a7-48ac-97f7-1aa7324d96af)
  )
  (wire (pts (xy 114.3 29.718) (xy 115.062 29.718))
    (stroke (width 0) (type default) (color 0 0 0 0))
    (uuid 8780add6-da34-406b-ab45-2564105f09d3)
  )
  (wire (pts (xy 106.68 26.162) (xy 114.808 26.162))
    (stroke (width 0) (type default) (color 0 0 0 0))
    (uuid 923ce650-b5e7-4074-a91d-1ebe051c6320)
  )
  (wire (pts (xy 87.884 34.798) (xy 89.408 34.798))
    (stroke (width 0) (type default) (color 0 0 0 0))
    (uuid 99a37808-2241-4fcd-a61d-92bce0e4cfdd)
  )
  (wire (pts (xy 93.98 39.878) (xy 93.472 39.878))
    (stroke (width 0) (type default) (color 0 0 0 0))
    (uuid 9a9507ef-9ff8-4901-a47b-9a8da426d8e8)
  )
  (wire (pts (xy 89.408 34.798) (xy 89.408 35.306))
    (stroke (width 0) (type default) (color 0 0 0 0))
    (uuid 9b4a9439-4594-4aa8-92eb-f5406542759c)
  )
  (wire (pts (xy 67.564 45.212) (xy 67.564 45.72))
    (stroke (width 0) (type default) (color 0 0 0 0))
    (uuid 9e96bc39-5278-4a75-82ea-6ba6a025c1cf)
  )
  (wire (pts (xy 40.386 50.038) (xy 41.656 50.038))
    (stroke (width 0) (type default) (color 0 0 0 0))
    (uuid a684c4a0-01f6-4539-9965-19177ec1fdb8)
  )
  (wire (pts (xy 123.19 29.718) (xy 128.016 29.718))
    (stroke (width 0) (type default) (color 0 0 0 0))
    (uuid a6dfd082-42c2-411a-900f-1bb40863e62a)
  )
  (wire (pts (xy 87.884 26.162) (xy 67.564 26.162))
    (stroke (width 0) (type default) (color 0 0 0 0))
    (uuid a7a176a2-e189-4666-b631-6636713028a2)
  )
  (wire (pts (xy 89.408 45.212) (xy 89.408 43.434))
    (stroke (width 0) (type default) (color 0 0 0 0))
    (uuid a8c04d1e-a394-4aaa-af38-71cb7fcf29c3)
  )
  (wire (pts (xy 123.19 39.878) (xy 128.016 39.878))
    (stroke (width 0) (type default) (color 0 0 0 0))
    (uuid b27fe40a-b16e-4bae-aadb-999bb53ffcb7)
  )
  (wire (pts (xy 49.276 26.162) (xy 49.276 42.418))
    (stroke (width 0) (type default) (color 0 0 0 0))
    (uuid b6f4f0ee-81b7-4b0d-852a-407facf2911b)
  )
  (wire (pts (xy 48.514 58.166) (xy 57.404 58.166))
    (stroke (width 0) (type default) (color 0 0 0 0))
    (uuid b8a93d76-42c2-47aa-8b82-2b581e7af080)
  )
  (wire (pts (xy 70.612 49.022) (xy 73.66 49.022))
    (stroke (width 0) (type default) (color 0 0 0 0))
    (uuid b9ad8edc-93da-43ef-adcb-6061f14e4170)
  )
  (wire (pts (xy 123.19 37.084) (xy 123.19 39.878))
    (stroke (width 0) (type default) (color 0 0 0 0))
    (uuid bd76cb0f-9375-47b5-b9ae-d1f13b5b9194)
  )
  (wire (pts (xy 63.754 60.198) (xy 67.564 60.198))
    (stroke (width 0) (type default) (color 0 0 0 0))
    (uuid bdd56468-0bad-42b5-9df2-08184cdef120)
  )
  (wire (pts (xy 88.9 47.752) (xy 89.408 47.752))
    (stroke (width 0) (type default) (color 0 0 0 0))
    (uuid becab749-9702-49ad-9562-29841b796c05)
  )
  (wire (pts (xy 87.884 26.67) (xy 87.884 26.162))
    (stroke (width 0) (type default) (color 0 0 0 0))
    (uuid c7a92fb4-dbb5-4e1c-a9d2-531aba7ba074)
  )
  (wire (pts (xy 67.564 60.198) (xy 67.564 50.8))
    (stroke (width 0) (type default) (color 0 0 0 0))
    (uuid cbc08ea5-8fab-4655-8c50-7e69e0d2758a)
  )
  (wire (pts (xy 114.808 26.162) (xy 114.808 39.878))
    (stroke (width 0) (type default) (color 0 0 0 0))
    (uuid cbec02ce-dee7-495e-80f8-9e9c6eeb2b6f)
  )
  (wire (pts (xy 89.408 47.752) (xy 89.408 45.212))
    (stroke (width 0) (type default) (color 0 0 0 0))
    (uuid ccec9fbe-7303-4b34-9160-56b1803dd40b)
  )
  (wire (pts (xy 67.564 44.704) (xy 67.564 45.212))
    (stroke (width 0) (type default) (color 0 0 0 0))
    (uuid d0b0e268-dac4-42bf-b35a-803928f0e793)
  )
  (wire (pts (xy 128.016 29.718) (xy 131.318 29.718))
    (stroke (width 0) (type default) (color 0 0 0 0))
    (uuid d1e28ed4-d8cd-4b86-b947-67da7eef8e0a)
  )
  (wire (pts (xy 89.408 51.562) (xy 89.408 60.198))
    (stroke (width 0) (type default) (color 0 0 0 0))
    (uuid d47e6948-2f27-4862-9909-ed3414ebd2cf)
  )
  (wire (pts (xy 73.152 52.07) (xy 73.152 51.562))
    (stroke (width 0) (type default) (color 0 0 0 0))
    (uuid d692d580-ab52-4edf-9abb-79bb62e46c56)
  )
  (wire (pts (xy 131.318 39.878) (xy 131.318 38.1))
    (stroke (width 0) (type default) (color 0 0 0 0))
    (uuid dd3a5098-85d6-44aa-8df6-871018b93dbc)
  )
  (wire (pts (xy 49.276 26.162) (xy 58.166 26.162))
    (stroke (width 0) (type default) (color 0 0 0 0))
    (uuid df718525-7c24-42a9-ab8b-88f8baa2ea07)
  )
  (wire (pts (xy 128.016 29.718) (xy 128.016 32.004))
    (stroke (width 0) (type default) (color 0 0 0 0))
    (uuid e76f254e-2d7f-477b-bf1f-abd635a1ce1e)
  )
  (wire (pts (xy 87.884 26.162) (xy 90.932 26.162))
    (stroke (width 0) (type default) (color 0 0 0 0))
    (uuid ecbf35b8-67b3-462c-b0bf-b7811a24d5e3)
  )
  (wire (pts (xy 89.408 60.198) (xy 73.152 60.198))
    (stroke (width 0) (type default) (color 0 0 0 0))
    (uuid ef6a9c14-2a87-40dd-be1b-e9d497dfa163)
  )
  (wire (pts (xy 70.612 49.53) (xy 70.612 49.022))
    (stroke (width 0) (type default) (color 0 0 0 0))
    (uuid ef8e9a51-181c-489c-bc97-344911bd4be3)
  )
  (wire (pts (xy 70.612 60.198) (xy 67.564 60.198))
    (stroke (width 0) (type default) (color 0 0 0 0))
    (uuid f8df4c68-61ff-437b-80db-47abe6435f80)
  )
  (wire (pts (xy 73.152 51.562) (xy 73.66 51.562))
    (stroke (width 0) (type default) (color 0 0 0 0))
    (uuid fc95140f-7b0e-433a-b9bc-57d8c5d7a81c)
  )

  (symbol (lib_id "power:GND") (at 123.19 40.386 0) (unit 1)
    (in_bom yes) (on_board yes)
    (uuid 00b8cdad-c4ed-4784-b625-07c51ad2bd8a)
    (property "Reference" "#PWR02" (id 0) (at 123.19 46.736 0)
      (effects (font (size 1.27 1.27)) hide)
    )
    (property "Value" "GND" (id 1) (at 123.19 43.942 0))
    (property "Footprint" "" (id 2) (at 123.19 40.386 0)
      (effects (font (size 1.27 1.27)) hide)
    )
    (property "Datasheet" "" (id 3) (at 123.19 40.386 0)
      (effects (font (size 1.27 1.27)) hide)
    )
    (pin "1" (uuid 99be4b4c-4860-482a-964f-e36cdf9457e9))
  )

  (symbol (lib_id "Device:R") (at 70.612 53.34 180) (unit 1)
    (in_bom yes) (on_board yes)
    (uuid 107ef087-6729-4314-ae2f-28c53209d19d)
    (property "Reference" "R3" (id 0) (at 68.58 53.34 90))
    (property "Value" "3.3" (id 1) (at 70.612 53.34 90))
    (property "Footprint" "Resistor_SMD:R_0805_2012Metric" (id 2) (at 72.39 53.34 90)
      (effects (font (size 1.27 1.27)) hide)
    )
    (property "Datasheet" "~" (id 3) (at 70.612 53.34 0)
      (effects (font (size 1.27 1.27)) hide)
    )
    (pin "1" (uuid 1259fa51-5218-4780-8428-95102ad9883a))
    (pin "2" (uuid 58df7710-d9f3-4f06-a84b-9b981312d618))
  )

  (symbol (lib_id "Diode:1N5822") (at 118.872 29.718 180) (unit 1)
    (in_bom yes) (on_board yes)
    (uuid 136947c0-3e8c-4338-9f62-2b08a05a8cec)
    (property "Reference" "D3" (id 0) (at 116.332 30.734 0))
    (property "Value" "1N5822" (id 1) (at 118.872 27.432 0))
    (property "Footprint" "Diode_SMD:D_SMA" (id 2) (at 118.872 25.273 0)
      (effects (font (size 1.27 1.27)) hide)
    )
    (property "Datasheet" "http://www.vishay.com/docs/88526/1n5820.pdf" (id 3) (at 118.872 29.718 0)
      (effects (font (size 1.27 1.27)) hide)
    )
    (pin "1" (uuid 749f83b1-4a93-49d5-92fc-f29aaf0c915e))
    (pin "2" (uuid 0acac033-936e-40ad-970f-a5a9d8fac5ed))
  )

  (symbol (lib_id "Connector_Generic:Conn_01x01") (at 35.306 58.166 180) (unit 1)
    (in_bom yes) (on_board yes)
    (uuid 1852490c-840f-4786-94e0-47a92a09689b)
    (property "Reference" "J2" (id 0) (at 35.306 60.452 0))
    (property "Value" "AC" (id 1) (at 35.306 55.88 0))
    (property "Footprint" "TestPoint:TestPoint_Pad_D2.0mm" (id 2) (at 35.306 58.166 0)
      (effects (font (size 1.27 1.27)) hide)
    )
    (property "Datasheet" "~" (id 3) (at 35.306 58.166 0)
      (effects (font (size 1.27 1.27)) hide)
    )
    (pin "1" (uuid ae412dd0-0362-400a-8bcb-8a857d5dac35))
  )

  (symbol (lib_id "Device:LED") (at 131.318 34.29 90) (unit 1)
    (in_bom yes) (on_board yes)
    (uuid 3712e2ac-4abc-47d5-a994-ff2d3e7660f3)
    (property "Reference" "D4" (id 0) (at 130.302 30.48 0)
      (effects (font (size 1.27 1.27)) (justify right))
    )
    (property "Value" "3W WW" (id 1) (at 133.604 29.718 0)
      (effects (font (size 1.27 1.27)) (justify right))
    )
    (property "Footprint" "Connector_PinHeader_2.54mm:PinHeader_1x02_P2.54mm_Vertical" (id 2) (at 131.318 34.29 0)
      (effects (font (size 1.27 1.27)) hide)
    )
    (property "Datasheet" "~" (id 3) (at 131.318 34.29 0)
      (effects (font (size 1.27 1.27)) hide)
    )
    (pin "1" (uuid efc3dd18-8ba0-49cf-946b-13029ecebbb5))
    (pin "2" (uuid facc16a1-b6a0-4904-83a6-9c372b12d274))
  )

  (symbol (lib_id "Device:R") (at 73.152 55.88 0) (mirror x) (unit 1)
    (in_bom yes) (on_board yes)
    (uuid 46a0083f-fc83-418b-a8e0-a0e45c3272a9)
    (property "Reference" "R4" (id 0) (at 75.184 55.88 90))
    (property "Value" "100k" (id 1) (at 73.152 55.88 90))
    (property "Footprint" "Resistor_SMD:R_0805_2012Metric" (id 2) (at 71.374 55.88 90)
      (effects (font (size 1.27 1.27)) hide)
    )
    (property "Datasheet" "~" (id 3) (at 73.152 55.88 0)
      (effects (font (size 1.27 1.27)) hide)
    )
    (pin "1" (uuid a46a4e5d-6004-4b8d-8e97-0697ce87a523))
    (pin "2" (uuid 23d90ec2-2ac1-4d66-b53e-199016b14e2b))
  )

  (symbol (lib_id "Device:C_Polarized_Small") (at 63.754 44.958 0) (mirror y) (unit 1)
    (in_bom yes) (on_board yes)
    (uuid 4e5eaa6c-47ed-4f4c-bcbe-5b9565106fa0)
    (property "Reference" "C2" (id 0) (at 63.754 43.434 0)
      (effects (font (size 1.27 1.27)) (justify left))
    )
    (property "Value" "4.7uF" (id 1) (at 63.754 46.736 0)
      (effects (font (size 1.27 1.27)) (justify left))
    )
    (property "Footprint" "Capacitor_THT:CP_Radial_D10.0mm_P5.00mm" (id 2) (at 63.754 44.958 0)
      (effects (font (size 1.27 1.27)) hide)
    )
    (property "Datasheet" "~" (id 3) (at 63.754 44.958 0)
      (effects (font (size 1.27 1.27)) hide)
    )
    (pin "1" (uuid e9ced787-95da-4771-9ecf-c85f5f2d33a7))
    (pin "2" (uuid f97c5043-0aac-4b0e-91a2-b36dadbb9249))
  )

  (symbol (lib_id "Device:C_Small") (at 90.932 30.48 0) (mirror y) (unit 1)
    (in_bom yes) (on_board yes)
    (uuid 6d1c94b8-6802-4943-9447-9e027f7e9b7e)
    (property "Reference" "C4" (id 0) (at 93.472 28.956 0)
      (effects (font (size 1.27 1.27)) (justify left))
    )
    (property "Value" "2.2n" (id 1) (at 95.25 32.004 0)
      (effects (font (size 1.27 1.27)) (justify left))
    )
    (property "Footprint" "Capacitor_SMD:C_1206_3216Metric" (id 2) (at 90.932 30.48 0)
      (effects (font (size 1.27 1.27)) hide)
    )
    (property "Datasheet" "~" (id 3) (at 90.932 30.48 0)
      (effects (font (size 1.27 1.27)) hide)
    )
    (pin "1" (uuid 0f940342-265d-4ffd-8bfa-fd3a7261b7c0))
    (pin "2" (uuid 80a519f3-df7c-41de-9c9d-331b6a0cd18d))
  )

  (symbol (lib_id "Device:D_Bridge_+-AA") (at 49.276 50.038 90) (unit 1)
    (in_bom yes) (on_board yes)
    (uuid 7676defa-688c-4968-90c8-2112249025a3)
    (property "Reference" "D1" (id 0) (at 49.276 48.514 90))
    (property "Value" "DB105" (id 1) (at 49.276 50.292 90))
    (property "Footprint" "Diode_SMD:Diode_Bridge_OnSemi_SDIP-4L" (id 2) (at 49.276 50.038 0)
      (effects (font (size 1.27 1.27)) hide)
    )
    (property "Datasheet" "~" (id 3) (at 49.276 50.038 0)
      (effects (font (size 1.27 1.27)) hide)
    )
    (pin "1" (uuid 5534081b-8d23-4fae-81e6-80759720074d))
    (pin "2" (uuid 84c96560-7fd4-488c-9885-d86c7ace9554))
    (pin "3" (uuid 4696e224-e6f1-4135-aa77-105b17b2d648))
    (pin "4" (uuid 9ffb4f95-7e3f-4b90-84fc-a9a426ef9bf8))
  )

  (symbol (lib_id "Diode:US1A") (at 89.408 39.116 270) (unit 1)
    (in_bom yes) (on_board yes)
    (uuid 7a825582-4d4b-4d3e-a87d-28e97512214b)
    (property "Reference" "D2" (id 0) (at 90.424 35.306 0)
      (effects (font (size 1.27 1.27)) (justify left))
    )
    (property "Value" "US1A" (id 1) (at 87.122 36.576 0)
      (effects (font (size 1.27 1.27)) (justify left))
    )
    (property "Footprint" "Diode_SMD:D_SMA" (id 2) (at 84.963 39.116 0)
      (effects (font (size 1.27 1.27)) hide)
    )
    (property "Datasheet" "https://www.diodes.com/assets/Datasheets/ds16008.pdf" (id 3) (at 89.408 39.116 0)
      (effects (font (size 1.27 1.27)) hide)
    )
    (pin "1" (uuid a17d79ca-9acc-4bc5-be29-717a1ef469b5))
    (pin "2" (uuid 43ca51c3-d2bb-401a-a196-66e86f2203cd))
  )

  (symbol (lib_id "Device:C_Small") (at 58.166 44.958 0) (unit 1)
    (in_bom yes) (on_board yes)
    (uuid 8035369b-0956-41e0-8ade-543ad9eecba8)
    (property "Reference" "C1" (id 0) (at 55.626 43.434 0)
      (effects (font (size 1.27 1.27)) (justify left))
    )
    (property "Value" "0.1uF" (id 1) (at 52.832 46.482 0)
      (effects (font (size 1.27 1.27)) (justify left))
    )
    (property "Footprint" "Capacitor_THT:C_Disc_D8.0mm_W2.5mm_P5.00mm" (id 2) (at 58.166 44.958 0)
      (effects (font (size 1.27 1.27)) hide)
    )
    (property "Datasheet" "~" (id 3) (at 58.166 44.958 0)
      (effects (font (size 1.27 1.27)) hide)
    )
    (pin "1" (uuid c4167929-93eb-400a-b4d0-3d250c41d22a))
    (pin "2" (uuid 0ab442cd-0257-4026-8d66-867a3bef3dd5))
  )

  (symbol (lib_id "Device:R") (at 87.884 30.48 180) (unit 1)
    (in_bom yes) (on_board yes)
    (uuid 8b13a312-2fd8-49f6-96f8-0595d91a7239)
    (property "Reference" "R5" (id 0) (at 85.852 30.48 90))
    (property "Value" "200k" (id 1) (at 87.884 30.48 90))
    (property "Footprint" "Resistor_SMD:R_0805_2012Metric" (id 2) (at 89.662 30.48 90)
      (effects (font (size 1.27 1.27)) hide)
    )
    (property "Datasheet" "~" (id 3) (at 87.884 30.48 0)
      (effects (font (size 1.27 1.27)) hide)
    )
    (pin "1" (uuid 1e34829c-8176-4982-a05f-b2b553c15b59))
    (pin "2" (uuid 06c27b91-514e-4ac6-b20e-7407c4e3cf33))
  )

  (symbol (lib_id "power:GNDREF") (at 67.564 60.706 0) (unit 1)
    (in_bom yes) (on_board yes)
    (uuid 8b680f74-4ca2-4761-99ae-0fe646d5107c)
    (property "Reference" "#PWR01" (id 0) (at 67.564 67.056 0)
      (effects (font (size 1.27 1.27)) hide)
    )
    (property "Value" "GNDREF" (id 1) (at 67.564 64.516 0))
    (property "Footprint" "" (id 2) (at 67.564 60.706 0)
      (effects (font (size 1.27 1.27)) hide)
    )
    (property "Datasheet" "" (id 3) (at 67.564 60.706 0)
      (effects (font (size 1.27 1.27)) hide)
    )
    (pin "1" (uuid c67941ae-419c-410d-aad4-45f2bdafa2eb))
  )

  (symbol (lib_id "belkin:BP3133") (at 81.28 47.752 0) (unit 1)
    (in_bom yes) (on_board yes)
    (uuid 9e7cc95a-f045-475b-9e1d-b9f9c512eadc)
    (property "Reference" "U1" (id 0) (at 85.344 42.926 0))
    (property "Value" "BP3133" (id 1) (at 79.756 42.926 0))
    (property "Footprint" "Package_SO:SO-8_3.9x4.9mm_P1.27mm" (id 2) (at 81.28 54.102 0)
      (effects (font (size 1.27 1.27)) hide)
    )
    (property "Datasheet" "" (id 3) (at 81.28 47.117 0)
      (effects (font (size 1.27 1.27)) hide)
    )
    (pin "1" (uuid 1a0a12e0-d021-45fe-9870-e4c8521d271a))
    (pin "2" (uuid 389b7e87-0826-477b-9e3a-bc4f96da03e1))
    (pin "3" (uuid 384b4b65-5944-45c1-9ca1-12b3094599f8))
    (pin "4" (uuid 0d2f84d9-c2f7-453c-ad24-0733e140fb4d))
    (pin "7" (uuid 56f64799-1c78-48ea-a0fb-a2dffc4371af))
    (pin "8" (uuid 0ef4f577-3e5d-412d-84ed-7490ff50ad99))
  )

  (symbol (lib_id "Device:C_Small") (at 104.14 26.162 90) (mirror x) (unit 1)
    (in_bom yes) (on_board yes)
    (uuid a68951c1-fcbf-4155-a583-27829da4afcd)
    (property "Reference" "C5" (id 0) (at 102.616 23.622 0)
      (effects (font (size 1.27 1.27)) (justify left))
    )
    (property "Value" "2.2n" (id 1) (at 105.664 21.844 0)
      (effects (font (size 1.27 1.27)) (justify left))
    )
    (property "Footprint" "Capacitor_SMD:C_1206_3216Metric" (id 2) (at 104.14 26.162 0)
      (effects (font (size 1.27 1.27)) hide)
    )
    (property "Datasheet" "~" (id 3) (at 104.14 26.162 0)
      (effects (font (size 1.27 1.27)) hide)
    )
    (pin "1" (uuid 576d71c9-44af-47bc-9b1f-d8955d4d0ed7))
    (pin "2" (uuid 5202e263-00cc-4253-b89c-b906de2bf06d))
  )

  (symbol (lib_id "Device:R") (at 67.564 40.894 180) (unit 1)
    (in_bom yes) (on_board yes)
    (uuid aa6883ea-1d94-49b6-8f4e-eb7b6f7b8bdf)
    (property "Reference" "R2" (id 0) (at 65.532 40.894 90))
    (property "Value" "480k" (id 1) (at 67.564 40.894 90))
    (property "Footprint" "Resistor_SMD:R_0805_2012Metric" (id 2) (at 69.342 40.894 90)
      (effects (font (size 1.27 1.27)) hide)
    )
    (property "Datasheet" "~" (id 3) (at 67.564 40.894 0)
      (effects (font (size 1.27 1.27)) hide)
    )
    (pin "1" (uuid 7700dfdb-b28b-4031-93c3-037348bf1687))
    (pin "2" (uuid b38f662d-61fc-4939-a1c9-2a8c58a36193))
  )

  (symbol (lib_id "Device:Transformer_1P_1S") (at 104.14 34.798 0) (mirror x) (unit 1)
    (in_bom yes) (on_board yes)
    (uuid b697be78-f062-4b2e-9fe5-1d71fee0fa7a)
    (property "Reference" "T1" (id 0) (at 104.14 40.894 0))
    (property "Value" "." (id 1) (at 105.664 40.894 0))
    (property "Footprint" "belkin:Transformer_NF_ETAL_P1165" (id 2) (at 104.14 34.798 0)
      (effects (font (size 1.27 1.27)) hide)
    )
    (property "Datasheet" "~" (id 3) (at 104.14 34.798 0)
      (effects (font (size 1.27 1.27)) hide)
    )
    (pin "1" (uuid 4d78ec0e-1f02-4918-bad5-4d627ac4920f))
    (pin "2" (uuid 3e3f6318-b64a-432f-91bd-da27540578ad))
    (pin "3" (uuid b00f278a-8266-40b4-9a19-532d20e21ef6))
    (pin "4" (uuid 8669b45e-ada7-47b3-9175-b8d311e925e8))
  )

  (symbol (lib_id "Device:R") (at 44.704 58.166 90) (unit 1)
    (in_bom yes) (on_board yes)
    (uuid b8009110-8834-457c-9aab-5e8be7425b16)
    (property "Reference" "R1" (id 0) (at 44.704 56.134 90))
    (property "Value" "2" (id 1) (at 44.704 58.166 90))
    (property "Footprint" "Resistor_SMD:R_1210_3225Metric" (id 2) (at 44.704 59.944 90)
      (effects (font (size 1.27 1.27)) hide)
    )
    (property "Datasheet" "~" (id 3) (at 44.704 58.166 0)
      (effects (font (size 1.27 1.27)) hide)
    )
    (pin "1" (uuid fd2f6398-f402-459e-80bd-34a2cf76b47d))
    (pin "2" (uuid 4aa133de-7a7d-45f1-a0fe-9aed0d0cfbab))
  )

  (symbol (lib_id "Connector_Generic:Conn_01x01") (at 35.306 50.038 180) (unit 1)
    (in_bom yes) (on_board yes)
    (uuid bdf68b65-df36-4274-acb1-39abe6b2e917)
    (property "Reference" "J1" (id 0) (at 35.306 52.324 0))
    (property "Value" "AC" (id 1) (at 35.306 47.752 0))
    (property "Footprint" "TestPoint:TestPoint_Pad_D2.0mm" (id 2) (at 35.306 50.038 0)
      (effects (font (size 1.27 1.27)) hide)
    )
    (property "Datasheet" "~" (id 3) (at 35.306 50.038 0)
      (effects (font (size 1.27 1.27)) hide)
    )
    (pin "1" (uuid 4d803247-877f-452f-ad65-caa3424797be))
  )

  (symbol (lib_id "Device:C_Polarized_Small") (at 123.19 34.544 0) (mirror y) (unit 1)
    (in_bom yes) (on_board yes)
    (uuid decea7a0-b794-4c5a-98ea-975452bf7503)
    (property "Reference" "C6" (id 0) (at 123.19 33.02 0)
      (effects (font (size 1.27 1.27)) (justify left))
    )
    (property "Value" "470uF" (id 1) (at 123.19 36.322 0)
      (effects (font (size 1.27 1.27)) (justify left))
    )
    (property "Footprint" "Capacitor_THT:CP_Radial_D10.0mm_P5.00mm" (id 2) (at 123.19 34.544 0)
      (effects (font (size 1.27 1.27)) hide)
    )
    (property "Datasheet" "~" (id 3) (at 123.19 34.544 0)
      (effects (font (size 1.27 1.27)) hide)
    )
    (pin "1" (uuid 313a6cc2-a12f-4b48-9b41-b9aa793eda6f))
    (pin "2" (uuid 06d9a637-83d0-4708-a442-6239819a596a))
  )

  (symbol (lib_id "Device:C_Small") (at 128.016 34.544 0) (unit 1)
    (in_bom yes) (on_board yes)
    (uuid ef8aff30-cb22-4239-8805-baa49f073cf7)
    (property "Reference" "C7" (id 0) (at 125.476 33.02 0)
      (effects (font (size 1.27 1.27)) (justify left))
    )
    (property "Value" "10uF" (id 1) (at 123.19 36.322 0)
      (effects (font (size 1.27 1.27)) (justify left))
    )
    (property "Footprint" "Capacitor_SMD:C_0805_2012Metric" (id 2) (at 128.016 34.544 0)
      (effects (font (size 1.27 1.27)) hide)
    )
    (property "Datasheet" "~" (id 3) (at 128.016 34.544 0)
      (effects (font (size 1.27 1.27)) hide)
    )
    (pin "1" (uuid abd26865-7e59-4834-a6d7-09562c9bc453))
    (pin "2" (uuid 3b716603-9c75-46df-8c86-e46c39cfb02d))
  )

  (symbol (lib_id "Device:C_Small") (at 67.564 48.26 0) (unit 1)
    (in_bom yes) (on_board yes)
    (uuid f6dbc847-8f61-4a81-8502-00059fc26adc)
    (property "Reference" "C3" (id 0) (at 65.024 46.736 0)
      (effects (font (size 1.27 1.27)) (justify left))
    )
    (property "Value" "1uF" (id 1) (at 63.754 49.784 0)
      (effects (font (size 1.27 1.27)) (justify left))
    )
    (property "Footprint" "Capacitor_SMD:C_0805_2012Metric" (id 2) (at 67.564 48.26 0)
      (effects (font (size 1.27 1.27)) hide)
    )
    (property "Datasheet" "~" (id 3) (at 67.564 48.26 0)
      (effects (font (size 1.27 1.27)) hide)
    )
    (pin "1" (uuid ae0955af-8c9b-4acf-96b6-19afd14897fc))
    (pin "2" (uuid 407af3dd-4bea-4610-8b37-c31cb307164f))
  )

  (sheet_instances
    (path "/" (page "1"))
  )

  (symbol_instances
    (path "/8b680f74-4ca2-4761-99ae-0fe646d5107c"
      (reference "#PWR01") (unit 1) (value "GNDREF") (footprint "")
    )
    (path "/00b8cdad-c4ed-4784-b625-07c51ad2bd8a"
      (reference "#PWR02") (unit 1) (value "GND") (footprint "")
    )
    (path "/8035369b-0956-41e0-8ade-543ad9eecba8"
      (reference "C1") (unit 1) (value "0.1uF") (footprint "Capacitor_THT:C_Disc_D8.0mm_W2.5mm_P5.00mm")
    )
    (path "/4e5eaa6c-47ed-4f4c-bcbe-5b9565106fa0"
      (reference "C2") (unit 1) (value "4.7uF") (footprint "Capacitor_THT:CP_Radial_D10.0mm_P5.00mm")
    )
    (path "/f6dbc847-8f61-4a81-8502-00059fc26adc"
      (reference "C3") (unit 1) (value "1uF") (footprint "Capacitor_SMD:C_0805_2012Metric")
    )
    (path "/6d1c94b8-6802-4943-9447-9e027f7e9b7e"
      (reference "C4") (unit 1) (value "2.2n") (footprint "Capacitor_SMD:C_1206_3216Metric")
    )
    (path "/a68951c1-fcbf-4155-a583-27829da4afcd"
      (reference "C5") (unit 1) (value "2.2n") (footprint "Capacitor_SMD:C_1206_3216Metric")
    )
    (path "/decea7a0-b794-4c5a-98ea-975452bf7503"
      (reference "C6") (unit 1) (value "470uF") (footprint "Capacitor_THT:CP_Radial_D10.0mm_P5.00mm")
    )
    (path "/ef8aff30-cb22-4239-8805-baa49f073cf7"
      (reference "C7") (unit 1) (value "10uF") (footprint "Capacitor_SMD:C_0805_2012Metric")
    )
    (path "/7676defa-688c-4968-90c8-2112249025a3"
      (reference "D1") (unit 1) (value "DB105") (footprint "Diode_SMD:Diode_Bridge_OnSemi_SDIP-4L")
    )
    (path "/7a825582-4d4b-4d3e-a87d-28e97512214b"
      (reference "D2") (unit 1) (value "US1A") (footprint "Diode_SMD:D_SMA")
    )
    (path "/136947c0-3e8c-4338-9f62-2b08a05a8cec"
      (reference "D3") (unit 1) (value "1N5822") (footprint "Diode_SMD:D_SMA")
    )
    (path "/3712e2ac-4abc-47d5-a994-ff2d3e7660f3"
      (reference "D4") (unit 1) (value "3W WW") (footprint "Connector_PinHeader_2.54mm:PinHeader_1x02_P2.54mm_Vertical")
    )
    (path "/bdf68b65-df36-4274-acb1-39abe6b2e917"
      (reference "J1") (unit 1) (value "AC") (footprint "TestPoint:TestPoint_Pad_D2.0mm")
    )
    (path "/1852490c-840f-4786-94e0-47a92a09689b"
      (reference "J2") (unit 1) (value "AC") (footprint "TestPoint:TestPoint_Pad_D2.0mm")
    )
    (path "/b8009110-8834-457c-9aab-5e8be7425b16"
      (reference "R1") (unit 1) (value "2") (footprint "Resistor_SMD:R_1210_3225Metric")
    )
    (path "/aa6883ea-1d94-49b6-8f4e-eb7b6f7b8bdf"
      (reference "R2") (unit 1) (value "480k") (footprint "Resistor_SMD:R_0805_2012Metric")
    )
    (path "/107ef087-6729-4314-ae2f-28c53209d19d"
      (reference "R3") (unit 1) (value "3.3") (footprint "Resistor_SMD:R_0805_2012Metric")
    )
    (path "/46a0083f-fc83-418b-a8e0-a0e45c3272a9"
      (reference "R4") (unit 1) (value "100k") (footprint "Resistor_SMD:R_0805_2012Metric")
    )
    (path "/8b13a312-2fd8-49f6-96f8-0595d91a7239"
      (reference "R5") (unit 1) (value "200k") (footprint "Resistor_SMD:R_0805_2012Metric")
    )
    (path "/b697be78-f062-4b2e-9fe5-1d71fee0fa7a"
      (reference "T1") (unit 1) (value ".") (footprint "belkin:Transformer_NF_ETAL_P1165")
    )
    (path "/9e7cc95a-f045-475b-9e1d-b9f9c512eadc"
      (reference "U1") (unit 1) (value "BP3133") (footprint "Package_SO:SO-8_3.9x4.9mm_P1.27mm")
    )
  )
)
