(kicad_sch (version 20211123) (generator eeschema)

  (uuid df42e033-71bb-48fc-b431-e6d15bcbb9ea)

  (paper "A4")

  (title_block
    (title "AC LED portable lamp")
    (date "2023-07-24")
    (comment 2 "Mikhail Belkin (dltech174@gmail.com +7-960-961-54-27)")
  )

  (lib_symbols
    (symbol "Connector_Generic:Conn_01x01" (pin_names (offset 1.016) hide) (in_bom yes) (on_board yes)
      (property "Reference" "J" (id 0) (at 0 2.54 0)
        (effects (font (size 1.27 1.27)))
      )
      (property "Value" "Conn_01x01" (id 1) (at 0 -2.54 0)
        (effects (font (size 1.27 1.27)))
      )
      (property "Footprint" "" (id 2) (at 0 0 0)
        (effects (font (size 1.27 1.27)) hide)
      )
      (property "Datasheet" "~" (id 3) (at 0 0 0)
        (effects (font (size 1.27 1.27)) hide)
      )
      (property "ki_keywords" "connector" (id 4) (at 0 0 0)
        (effects (font (size 1.27 1.27)) hide)
      )
      (property "ki_description" "Generic connector, single row, 01x01, script generated (kicad-library-utils/schlib/autogen/connector/)" (id 5) (at 0 0 0)
        (effects (font (size 1.27 1.27)) hide)
      )
      (property "ki_fp_filters" "Connector*:*_1x??_*" (id 6) (at 0 0 0)
        (effects (font (size 1.27 1.27)) hide)
      )
      (symbol "Conn_01x01_1_1"
        (rectangle (start -1.27 0.127) (end 0 -0.127)
          (stroke (width 0.1524) (type default) (color 0 0 0 0))
          (fill (type none))
        )
        (rectangle (start -1.27 1.27) (end 1.27 -1.27)
          (stroke (width 0.254) (type default) (color 0 0 0 0))
          (fill (type background))
        )
        (pin passive line (at -5.08 0 0) (length 3.81)
          (name "Pin_1" (effects (font (size 1.27 1.27))))
          (number "1" (effects (font (size 1.27 1.27))))
        )
      )
    )
    (symbol "Device:C_Polarized_Small" (pin_numbers hide) (pin_names (offset 0.254) hide) (in_bom yes) (on_board yes)
      (property "Reference" "C" (id 0) (at 0.254 1.778 0)
        (effects (font (size 1.27 1.27)) (justify left))
      )
      (property "Value" "C_Polarized_Small" (id 1) (at 0.254 -2.032 0)
        (effects (font (size 1.27 1.27)) (justify left))
      )
      (property "Footprint" "" (id 2) (at 0 0 0)
        (effects (font (size 1.27 1.27)) hide)
      )
      (property "Datasheet" "~" (id 3) (at 0 0 0)
        (effects (font (size 1.27 1.27)) hide)
      )
      (property "ki_keywords" "cap capacitor" (id 4) (at 0 0 0)
        (effects (font (size 1.27 1.27)) hide)
      )
      (property "ki_description" "Polarized capacitor, small symbol" (id 5) (at 0 0 0)
        (effects (font (size 1.27 1.27)) hide)
      )
      (property "ki_fp_filters" "CP_*" (id 6) (at 0 0 0)
        (effects (font (size 1.27 1.27)) hide)
      )
      (symbol "C_Polarized_Small_0_1"
        (rectangle (start -1.524 -0.3048) (end 1.524 -0.6858)
          (stroke (width 0) (type default) (color 0 0 0 0))
          (fill (type outline))
        )
        (rectangle (start -1.524 0.6858) (end 1.524 0.3048)
          (stroke (width 0) (type default) (color 0 0 0 0))
          (fill (type none))
        )
        (polyline
          (pts
            (xy -1.27 1.524)
            (xy -0.762 1.524)
          )
          (stroke (width 0) (type default) (color 0 0 0 0))
          (fill (type none))
        )
        (polyline
          (pts
            (xy -1.016 1.27)
            (xy -1.016 1.778)
          )
          (stroke (width 0) (type default) (color 0 0 0 0))
          (fill (type none))
        )
      )
      (symbol "C_Polarized_Small_1_1"
        (pin passive line (at 0 2.54 270) (length 1.8542)
          (name "~" (effects (font (size 1.27 1.27))))
          (number "1" (effects (font (size 1.27 1.27))))
        )
        (pin passive line (at 0 -2.54 90) (length 1.8542)
          (name "~" (effects (font (size 1.27 1.27))))
          (number "2" (effects (font (size 1.27 1.27))))
        )
      )
    )
    (symbol "Device:LED_Series" (pin_names (offset 1.016) hide) (in_bom yes) (on_board yes)
      (property "Reference" "D" (id 0) (at 0 5.715 0)
        (effects (font (size 1.27 1.27)))
      )
      (property "Value" "LED_Series" (id 1) (at 0 3.81 0)
        (effects (font (size 1.27 1.27)))
      )
      (property "Footprint" "" (id 2) (at -2.54 0 0)
        (effects (font (size 1.27 1.27)) hide)
      )
      (property "Datasheet" "~" (id 3) (at -2.54 0 0)
        (effects (font (size 1.27 1.27)) hide)
      )
      (property "ki_keywords" "LED diode" (id 4) (at 0 0 0)
        (effects (font (size 1.27 1.27)) hide)
      )
      (property "ki_description" "Several LEDs in series" (id 5) (at 0 0 0)
        (effects (font (size 1.27 1.27)) hide)
      )
      (property "ki_fp_filters" "LED* LED_SMD:* LED_THT:*" (id 6) (at 0 0 0)
        (effects (font (size 1.27 1.27)) hide)
      )
      (symbol "LED_Series_0_1"
        (polyline
          (pts
            (xy -3.81 0)
            (xy -1.016 0)
          )
          (stroke (width 0) (type default) (color 0 0 0 0))
          (fill (type none))
        )
        (polyline
          (pts
            (xy -3.683 -1.27)
            (xy -3.683 1.27)
          )
          (stroke (width 0.254) (type default) (color 0 0 0 0))
          (fill (type none))
        )
        (polyline
          (pts
            (xy -0.508 0)
            (xy -0.762 0)
          )
          (stroke (width 0) (type default) (color 0 0 0 0))
          (fill (type none))
        )
        (polyline
          (pts
            (xy 0.127 0)
            (xy -0.127 0)
          )
          (stroke (width 0) (type default) (color 0 0 0 0))
          (fill (type none))
        )
        (polyline
          (pts
            (xy 0.508 0)
            (xy 0.762 0)
          )
          (stroke (width 0) (type default) (color 0 0 0 0))
          (fill (type none))
        )
        (polyline
          (pts
            (xy 1.016 0)
            (xy 3.81 0)
          )
          (stroke (width 0) (type default) (color 0 0 0 0))
          (fill (type none))
        )
        (polyline
          (pts
            (xy 1.143 -1.27)
            (xy 1.143 1.27)
          )
          (stroke (width 0.254) (type default) (color 0 0 0 0))
          (fill (type none))
        )
        (polyline
          (pts
            (xy -1.143 -1.27)
            (xy -1.143 1.27)
            (xy -3.683 0)
            (xy -1.143 -1.27)
          )
          (stroke (width 0.254) (type default) (color 0 0 0 0))
          (fill (type none))
        )
        (polyline
          (pts
            (xy 3.683 -1.27)
            (xy 3.683 1.27)
            (xy 1.143 0)
            (xy 3.683 -1.27)
          )
          (stroke (width 0.254) (type default) (color 0 0 0 0))
          (fill (type none))
        )
        (polyline
          (pts
            (xy -3.302 1.397)
            (xy -1.778 2.921)
            (xy -2.54 2.921)
            (xy -1.778 2.921)
            (xy -1.778 2.159)
          )
          (stroke (width 0) (type default) (color 0 0 0 0))
          (fill (type none))
        )
        (polyline
          (pts
            (xy -2.032 1.397)
            (xy -0.508 2.921)
            (xy -1.27 2.921)
            (xy -0.508 2.921)
            (xy -0.508 2.159)
          )
          (stroke (width 0) (type default) (color 0 0 0 0))
          (fill (type none))
        )
        (polyline
          (pts
            (xy 1.524 1.397)
            (xy 3.048 2.921)
            (xy 2.286 2.921)
            (xy 3.048 2.921)
            (xy 3.048 2.159)
          )
          (stroke (width 0) (type default) (color 0 0 0 0))
          (fill (type none))
        )
        (polyline
          (pts
            (xy 2.794 1.397)
            (xy 4.318 2.921)
            (xy 3.556 2.921)
            (xy 4.318 2.921)
            (xy 4.318 2.159)
          )
          (stroke (width 0) (type default) (color 0 0 0 0))
          (fill (type none))
        )
      )
      (symbol "LED_Series_1_1"
        (pin passive line (at -6.35 0 0) (length 2.54)
          (name "K" (effects (font (size 1.27 1.27))))
          (number "1" (effects (font (size 1.27 1.27))))
        )
        (pin passive line (at 6.35 0 180) (length 2.54)
          (name "A" (effects (font (size 1.27 1.27))))
          (number "2" (effects (font (size 1.27 1.27))))
        )
      )
    )
    (symbol "Device:R" (pin_numbers hide) (pin_names (offset 0)) (in_bom yes) (on_board yes)
      (property "Reference" "R" (id 0) (at 2.032 0 90)
        (effects (font (size 1.27 1.27)))
      )
      (property "Value" "R" (id 1) (at 0 0 90)
        (effects (font (size 1.27 1.27)))
      )
      (property "Footprint" "" (id 2) (at -1.778 0 90)
        (effects (font (size 1.27 1.27)) hide)
      )
      (property "Datasheet" "~" (id 3) (at 0 0 0)
        (effects (font (size 1.27 1.27)) hide)
      )
      (property "ki_keywords" "R res resistor" (id 4) (at 0 0 0)
        (effects (font (size 1.27 1.27)) hide)
      )
      (property "ki_description" "Resistor" (id 5) (at 0 0 0)
        (effects (font (size 1.27 1.27)) hide)
      )
      (property "ki_fp_filters" "R_*" (id 6) (at 0 0 0)
        (effects (font (size 1.27 1.27)) hide)
      )
      (symbol "R_0_1"
        (rectangle (start -1.016 -2.54) (end 1.016 2.54)
          (stroke (width 0.254) (type default) (color 0 0 0 0))
          (fill (type none))
        )
      )
      (symbol "R_1_1"
        (pin passive line (at 0 3.81 270) (length 1.27)
          (name "~" (effects (font (size 1.27 1.27))))
          (number "1" (effects (font (size 1.27 1.27))))
        )
        (pin passive line (at 0 -3.81 90) (length 1.27)
          (name "~" (effects (font (size 1.27 1.27))))
          (number "2" (effects (font (size 1.27 1.27))))
        )
      )
    )
    (symbol "belkin:DB107" (pin_names (offset 0)) (in_bom yes) (on_board yes)
      (property "Reference" "D" (id 0) (at 2.54 6.985 0)
        (effects (font (size 1.27 1.27)) (justify left))
      )
      (property "Value" "DB107" (id 1) (at 2.54 5.08 0)
        (effects (font (size 1.27 1.27)) (justify left))
      )
      (property "Footprint" "Diode_SMD:Diode_Bridge_OnSemi_SDIP-4L" (id 2) (at 0 0 0)
        (effects (font (size 1.27 1.27)) hide)
      )
      (property "Datasheet" "~" (id 3) (at 0 0 0)
        (effects (font (size 1.27 1.27)) hide)
      )
      (property "ki_keywords" "rectifier ACDC" (id 4) (at 0 0 0)
        (effects (font (size 1.27 1.27)) hide)
      )
      (property "ki_description" "Diode bridge, +ve/-ve/AC/AC" (id 5) (at 0 0 0)
        (effects (font (size 1.27 1.27)) hide)
      )
      (property "ki_fp_filters" "D*Bridge* D*Rectifier*" (id 6) (at 0 0 0)
        (effects (font (size 1.27 1.27)) hide)
      )
      (symbol "DB107_0_1"
        (circle (center -5.08 0) (radius 0.254)
          (stroke (width 0) (type default) (color 0 0 0 0))
          (fill (type outline))
        )
        (circle (center 0 -5.08) (radius 0.254)
          (stroke (width 0) (type default) (color 0 0 0 0))
          (fill (type outline))
        )
        (polyline
          (pts
            (xy -2.54 3.81)
            (xy -1.27 2.54)
          )
          (stroke (width 0.254) (type default) (color 0 0 0 0))
          (fill (type none))
        )
        (polyline
          (pts
            (xy -1.27 -2.54)
            (xy -2.54 -3.81)
          )
          (stroke (width 0.254) (type default) (color 0 0 0 0))
          (fill (type none))
        )
        (polyline
          (pts
            (xy 2.54 -1.27)
            (xy 3.81 -2.54)
          )
          (stroke (width 0.254) (type default) (color 0 0 0 0))
          (fill (type none))
        )
        (polyline
          (pts
            (xy 2.54 1.27)
            (xy 3.81 2.54)
          )
          (stroke (width 0.254) (type default) (color 0 0 0 0))
          (fill (type none))
        )
        (polyline
          (pts
            (xy -3.81 2.54)
            (xy -2.54 1.27)
            (xy -1.905 3.175)
            (xy -3.81 2.54)
          )
          (stroke (width 0.254) (type default) (color 0 0 0 0))
          (fill (type none))
        )
        (polyline
          (pts
            (xy -2.54 -1.27)
            (xy -3.81 -2.54)
            (xy -1.905 -3.175)
            (xy -2.54 -1.27)
          )
          (stroke (width 0.254) (type default) (color 0 0 0 0))
          (fill (type none))
        )
        (polyline
          (pts
            (xy 1.27 2.54)
            (xy 2.54 3.81)
            (xy 3.175 1.905)
            (xy 1.27 2.54)
          )
          (stroke (width 0.254) (type default) (color 0 0 0 0))
          (fill (type none))
        )
        (polyline
          (pts
            (xy 3.175 -1.905)
            (xy 1.27 -2.54)
            (xy 2.54 -3.81)
            (xy 3.175 -1.905)
          )
          (stroke (width 0.254) (type default) (color 0 0 0 0))
          (fill (type none))
        )
        (polyline
          (pts
            (xy -5.08 0)
            (xy 0 -5.08)
            (xy 5.08 0)
            (xy 0 5.08)
            (xy -5.08 0)
          )
          (stroke (width 0) (type default) (color 0 0 0 0))
          (fill (type none))
        )
        (circle (center 0 5.08) (radius 0.254)
          (stroke (width 0) (type default) (color 0 0 0 0))
          (fill (type outline))
        )
        (circle (center 5.08 0) (radius 0.254)
          (stroke (width 0) (type default) (color 0 0 0 0))
          (fill (type outline))
        )
      )
      (symbol "DB107_1_1"
        (pin passive line (at 7.62 0 180) (length 2.54)
          (name "+" (effects (font (size 1.27 1.27))))
          (number "1" (effects (font (size 1.27 1.27))))
        )
        (pin passive line (at -7.62 0 0) (length 2.54)
          (name "-" (effects (font (size 1.27 1.27))))
          (number "2" (effects (font (size 1.27 1.27))))
        )
        (pin passive line (at 0 7.62 270) (length 2.54)
          (name "~" (effects (font (size 1.27 1.27))))
          (number "3" (effects (font (size 1.27 1.27))))
        )
        (pin passive line (at 0 -7.62 90) (length 2.54)
          (name "~" (effects (font (size 1.27 1.27))))
          (number "4" (effects (font (size 1.27 1.27))))
        )
      )
    )
    (symbol "belkin:SM2082ED" (in_bom yes) (on_board yes)
      (property "Reference" "U" (id 0) (at 5.08 6.985 0)
        (effects (font (size 1.27 1.27)))
      )
      (property "Value" "SM2082ED" (id 1) (at -1.27 6.985 0)
        (effects (font (size 1.27 1.27)))
      )
      (property "Footprint" "" (id 2) (at 0 -1.27 0)
        (effects (font (size 1.27 1.27)) hide)
      )
      (property "Datasheet" "" (id 3) (at 0 -1.27 0)
        (effects (font (size 1.27 1.27)) hide)
      )
      (symbol "SM2082ED_0_1"
        (rectangle (start -6.35 5.08) (end 6.35 -5.08)
          (stroke (width 0) (type default) (color 0 0 0 0))
          (fill (type none))
        )
      )
      (symbol "SM2082ED_1_1"
        (pin power_in line (at -1.27 -7.62 90) (length 2.54)
          (name "GND1" (effects (font (size 1.27 1.27))))
          (number "1" (effects (font (size 1.27 1.27))))
        )
        (pin input line (at -8.89 3.81 0) (length 2.54)
          (name "REXT1" (effects (font (size 1.27 1.27))))
          (number "2" (effects (font (size 1.27 1.27))))
        )
        (pin power_in line (at 1.27 -7.62 90) (length 2.54)
          (name "GND2" (effects (font (size 1.27 1.27))))
          (number "3" (effects (font (size 1.27 1.27))))
        )
        (pin input line (at -8.89 1.27 0) (length 2.54)
          (name "REXT2" (effects (font (size 1.27 1.27))))
          (number "4" (effects (font (size 1.27 1.27))))
        )
        (pin power_out line (at 8.89 1.27 180) (length 2.54)
          (name "OUT2" (effects (font (size 1.27 1.27))))
          (number "5" (effects (font (size 1.27 1.27))))
        )
        (pin power_out line (at 8.89 3.81 180) (length 2.54)
          (name "OUT1" (effects (font (size 1.27 1.27))))
          (number "7" (effects (font (size 1.27 1.27))))
        )
      )
    )
    (symbol "power:GND" (power) (pin_names (offset 0)) (in_bom yes) (on_board yes)
      (property "Reference" "#PWR" (id 0) (at 0 -6.35 0)
        (effects (font (size 1.27 1.27)) hide)
      )
      (property "Value" "GND" (id 1) (at 0 -3.81 0)
        (effects (font (size 1.27 1.27)))
      )
      (property "Footprint" "" (id 2) (at 0 0 0)
        (effects (font (size 1.27 1.27)) hide)
      )
      (property "Datasheet" "" (id 3) (at 0 0 0)
        (effects (font (size 1.27 1.27)) hide)
      )
      (property "ki_keywords" "global power" (id 4) (at 0 0 0)
        (effects (font (size 1.27 1.27)) hide)
      )
      (property "ki_description" "Power symbol creates a global label with name \"GND\" , ground" (id 5) (at 0 0 0)
        (effects (font (size 1.27 1.27)) hide)
      )
      (symbol "GND_0_1"
        (polyline
          (pts
            (xy 0 0)
            (xy 0 -1.27)
            (xy 1.27 -1.27)
            (xy 0 -2.54)
            (xy -1.27 -1.27)
            (xy 0 -1.27)
          )
          (stroke (width 0) (type default) (color 0 0 0 0))
          (fill (type none))
        )
      )
      (symbol "GND_1_1"
        (pin power_in line (at 0 0 270) (length 0) hide
          (name "GND" (effects (font (size 1.27 1.27))))
          (number "1" (effects (font (size 1.27 1.27))))
        )
      )
    )
  )

  (junction (at 71.374 56.642) (diameter 0) (color 0 0 0 0)
    (uuid 56a840bc-2427-4d6c-9cf7-17c10b03017e)
  )
  (junction (at 173.228 37.846) (diameter 0) (color 0 0 0 0)
    (uuid 5a23da45-2fb1-4d30-8d21-fa2750b4cb28)
  )
  (junction (at 171.45 47.498) (diameter 0) (color 0 0 0 0)
    (uuid 6a0467cc-185a-4a5a-9d5b-48cb5dfa87fc)
  )
  (junction (at 63.246 56.642) (diameter 0) (color 0 0 0 0)
    (uuid 71a32f31-beb6-43e0-a55b-b91b0b96f7b2)
  )
  (junction (at 82.042 44.45) (diameter 0) (color 0 0 0 0)
    (uuid 91681984-98f5-43ff-a59c-140d5884fcb9)
  )
  (junction (at 82.042 47.498) (diameter 0) (color 0 0 0 0)
    (uuid 9b7161d6-efea-4685-bf01-d0b0169dd131)
  )
  (junction (at 171.45 44.45) (diameter 0) (color 0 0 0 0)
    (uuid c3c4dfc0-144e-40fd-ad59-31a492d5deb4)
  )
  (junction (at 171.45 37.846) (diameter 0) (color 0 0 0 0)
    (uuid ce08cf69-48b3-453f-9e68-3e1eb2c6d7fa)
  )
  (junction (at 171.45 53.848) (diameter 0) (color 0 0 0 0)
    (uuid ce8c1705-5ab5-4ed8-8de3-5e8a3701f5ab)
  )
  (junction (at 171.45 59.944) (diameter 0) (color 0 0 0 0)
    (uuid ed8edd11-2792-443a-a855-db465d67f732)
  )
  (junction (at 173.228 59.944) (diameter 0) (color 0 0 0 0)
    (uuid f4754d33-248e-4ae0-8698-8270306164c1)
  )

  (wire (pts (xy 135.636 44.45) (xy 136.398 44.45))
    (stroke (width 0) (type default) (color 0 0 0 0))
    (uuid 057b8d5a-1bc3-4b28-95c4-66e4ec1d7655)
  )
  (wire (pts (xy 191.008 54.356) (xy 191.77 54.356))
    (stroke (width 0) (type default) (color 0 0 0 0))
    (uuid 0f360496-9b14-4686-bc03-8585ffc06f2e)
  )
  (wire (pts (xy 122.174 47.498) (xy 122.936 47.498))
    (stroke (width 0) (type default) (color 0 0 0 0))
    (uuid 1331ad1d-2d83-4c55-a992-9a0240bd510f)
  )
  (wire (pts (xy 63.246 55.372) (xy 63.246 56.642))
    (stroke (width 0) (type default) (color 0 0 0 0))
    (uuid 135a4a89-a220-4de2-a2de-3ccb1a3aa5cb)
  )
  (wire (pts (xy 60.706 56.642) (xy 63.246 56.642))
    (stroke (width 0) (type default) (color 0 0 0 0))
    (uuid 171221b3-d1a6-454c-acf0-70df9443d612)
  )
  (wire (pts (xy 82.042 53.848) (xy 82.55 53.848))
    (stroke (width 0) (type default) (color 0 0 0 0))
    (uuid 17d72bbf-6e1f-4f8c-a6a8-4f9488e2f3e6)
  )
  (wire (pts (xy 182.88 53.594) (xy 182.88 59.944))
    (stroke (width 0) (type default) (color 0 0 0 0))
    (uuid 1a794a24-fd65-4921-b67e-bc40cb3dcfa1)
  )
  (wire (pts (xy 108.712 44.45) (xy 109.474 44.45))
    (stroke (width 0) (type default) (color 0 0 0 0))
    (uuid 1ad381be-4a72-4b38-9ce6-b066133a2e2d)
  )
  (wire (pts (xy 95.25 37.846) (xy 96.012 37.846))
    (stroke (width 0) (type default) (color 0 0 0 0))
    (uuid 1da6a9dc-5347-4db8-ad7a-27949478c6a5)
  )
  (wire (pts (xy 162.56 44.45) (xy 163.322 44.45))
    (stroke (width 0) (type default) (color 0 0 0 0))
    (uuid 1f7b95ac-e503-4e25-89f0-6475210dc4cc)
  )
  (wire (pts (xy 60.706 44.704) (xy 63.754 44.704))
    (stroke (width 0) (type default) (color 0 0 0 0))
    (uuid 2d7778c8-05c2-4241-ae82-e9dfcfbe8983)
  )
  (wire (pts (xy 82.042 47.498) (xy 82.55 47.498))
    (stroke (width 0) (type default) (color 0 0 0 0))
    (uuid 366a6426-efcc-4fea-9021-e4e1748b85f2)
  )
  (wire (pts (xy 122.174 44.45) (xy 122.936 44.45))
    (stroke (width 0) (type default) (color 0 0 0 0))
    (uuid 387b667f-8202-4eb3-b4a0-7fd48e9fbe27)
  )
  (wire (pts (xy 108.712 37.846) (xy 109.474 37.846))
    (stroke (width 0) (type default) (color 0 0 0 0))
    (uuid 3ca08e05-e602-4102-aef6-db7b6562e25f)
  )
  (wire (pts (xy 170.942 47.498) (xy 171.45 47.498))
    (stroke (width 0) (type default) (color 0 0 0 0))
    (uuid 41bebe80-97b6-49ff-8142-9b789bff8fab)
  )
  (wire (pts (xy 108.712 47.498) (xy 109.474 47.498))
    (stroke (width 0) (type default) (color 0 0 0 0))
    (uuid 4d546404-1241-4862-b16d-6bf982a045a8)
  )
  (wire (pts (xy 60.706 45.212) (xy 60.706 44.704))
    (stroke (width 0) (type default) (color 0 0 0 0))
    (uuid 550ec23c-1b36-419a-a4d2-07c6a9c5de34)
  )
  (wire (pts (xy 171.45 53.848) (xy 170.942 53.848))
    (stroke (width 0) (type default) (color 0 0 0 0))
    (uuid 596de4b9-c8bc-4db0-afdf-609881556e18)
  )
  (wire (pts (xy 60.706 52.832) (xy 60.706 56.642))
    (stroke (width 0) (type default) (color 0 0 0 0))
    (uuid 59df81cd-31a7-42c9-9e29-7cc5457e5136)
  )
  (wire (pts (xy 162.56 47.498) (xy 163.322 47.498))
    (stroke (width 0) (type default) (color 0 0 0 0))
    (uuid 5a285cf6-a007-46c4-a4eb-c9dbecc20687)
  )
  (wire (pts (xy 95.25 47.498) (xy 96.012 47.498))
    (stroke (width 0) (type default) (color 0 0 0 0))
    (uuid 5f4aaabd-bd9f-46ab-9b44-903e1c60be59)
  )
  (wire (pts (xy 171.45 37.846) (xy 170.942 37.846))
    (stroke (width 0) (type default) (color 0 0 0 0))
    (uuid 61f46d72-2b46-430d-b915-a626c66dff13)
  )
  (wire (pts (xy 108.712 53.848) (xy 109.474 53.848))
    (stroke (width 0) (type default) (color 0 0 0 0))
    (uuid 671eb169-08c0-47a1-8450-a394fdca7116)
  )
  (wire (pts (xy 173.228 37.846) (xy 173.228 42.164))
    (stroke (width 0) (type default) (color 0 0 0 0))
    (uuid 68a14ebe-a623-4bf1-a73f-9cae032297c9)
  )
  (wire (pts (xy 63.246 56.642) (xy 71.374 56.642))
    (stroke (width 0) (type default) (color 0 0 0 0))
    (uuid 69b88b7a-f28e-4b82-bff3-4d3b65f5dde2)
  )
  (wire (pts (xy 82.042 47.244) (xy 82.042 47.498))
    (stroke (width 0) (type default) (color 0 0 0 0))
    (uuid 6c14e15a-1d19-476a-bd26-a9080d0e4792)
  )
  (wire (pts (xy 162.56 37.846) (xy 163.322 37.846))
    (stroke (width 0) (type default) (color 0 0 0 0))
    (uuid 6c9e364c-7263-409d-9fb6-c6341faac29a)
  )
  (wire (pts (xy 173.228 59.944) (xy 171.45 59.944))
    (stroke (width 0) (type default) (color 0 0 0 0))
    (uuid 72d2bc3c-848f-4e03-be54-c4152e1cf0f6)
  )
  (wire (pts (xy 162.56 53.848) (xy 163.322 53.848))
    (stroke (width 0) (type default) (color 0 0 0 0))
    (uuid 76aa4e7f-11bc-4b2e-8195-a9e568fa49d5)
  )
  (wire (pts (xy 122.174 53.848) (xy 122.936 53.848))
    (stroke (width 0) (type default) (color 0 0 0 0))
    (uuid 782891a5-cba1-435e-8f6d-72ec98041ee1)
  )
  (wire (pts (xy 82.042 37.846) (xy 82.55 37.846))
    (stroke (width 0) (type default) (color 0 0 0 0))
    (uuid 7c79dee3-448b-4e70-be4f-f8b6df1288ca)
  )
  (wire (pts (xy 95.25 44.45) (xy 96.012 44.45))
    (stroke (width 0) (type default) (color 0 0 0 0))
    (uuid 7e4c1307-b0a8-4e3b-948b-60ac32588ad4)
  )
  (wire (pts (xy 173.228 37.846) (xy 182.88 37.846))
    (stroke (width 0) (type default) (color 0 0 0 0))
    (uuid 7f773de8-1c4b-4208-b4e1-3ec2f2cd174f)
  )
  (wire (pts (xy 81.534 47.244) (xy 82.042 47.244))
    (stroke (width 0) (type default) (color 0 0 0 0))
    (uuid 85824046-1ed6-47fd-a22f-83cbac6ae218)
  )
  (wire (pts (xy 71.374 56.642) (xy 73.914 56.642))
    (stroke (width 0) (type default) (color 0 0 0 0))
    (uuid 8e44baf1-abbc-4aac-ad95-93e7ce9322fe)
  )
  (wire (pts (xy 63.246 47.244) (xy 63.754 47.244))
    (stroke (width 0) (type default) (color 0 0 0 0))
    (uuid 8ed07efe-d298-40ab-8165-a536529c1737)
  )
  (wire (pts (xy 122.174 37.846) (xy 122.936 37.846))
    (stroke (width 0) (type default) (color 0 0 0 0))
    (uuid 919eb3ad-91ce-492c-8a24-95fc1b589cc9)
  )
  (wire (pts (xy 149.098 37.846) (xy 149.86 37.846))
    (stroke (width 0) (type default) (color 0 0 0 0))
    (uuid 925c0157-e345-49fc-bbe0-9e10a410cb94)
  )
  (wire (pts (xy 183.388 54.356) (xy 174.752 54.356))
    (stroke (width 0) (type default) (color 0 0 0 0))
    (uuid 93927d9e-ad2d-4268-a435-23799b71b494)
  )
  (wire (pts (xy 73.914 56.642) (xy 73.914 56.134))
    (stroke (width 0) (type default) (color 0 0 0 0))
    (uuid 98acbdf3-970d-4903-8b35-dff6aa304cf8)
  )
  (wire (pts (xy 82.55 44.45) (xy 82.042 44.45))
    (stroke (width 0) (type default) (color 0 0 0 0))
    (uuid 9a5ad2e8-15fb-4fee-9d39-48cecf1ee23e)
  )
  (wire (pts (xy 71.374 56.642) (xy 71.374 57.15))
    (stroke (width 0) (type default) (color 0 0 0 0))
    (uuid a00249ee-ffa4-4891-abdf-3716954cce96)
  )
  (wire (pts (xy 81.534 44.704) (xy 82.042 44.704))
    (stroke (width 0) (type default) (color 0 0 0 0))
    (uuid a2d8bca8-ae04-4117-87ea-92386eaf862f)
  )
  (wire (pts (xy 135.636 37.846) (xy 136.398 37.846))
    (stroke (width 0) (type default) (color 0 0 0 0))
    (uuid a8804aad-f93b-4a2d-8114-47ce1f5f8461)
  )
  (wire (pts (xy 174.752 54.356) (xy 174.752 45.974))
    (stroke (width 0) (type default) (color 0 0 0 0))
    (uuid ad016f19-84a9-4bec-9a04-03059f76e59f)
  )
  (wire (pts (xy 135.636 47.498) (xy 136.398 47.498))
    (stroke (width 0) (type default) (color 0 0 0 0))
    (uuid ae1623df-6220-43ca-a67a-09fb071f4235)
  )
  (wire (pts (xy 149.098 47.498) (xy 149.86 47.498))
    (stroke (width 0) (type default) (color 0 0 0 0))
    (uuid b4c4327c-2074-43c5-bdc0-22f941d3dc90)
  )
  (wire (pts (xy 173.228 59.944) (xy 182.88 59.944))
    (stroke (width 0) (type default) (color 0 0 0 0))
    (uuid b9fbb3e4-3e25-469f-a788-0e8935947773)
  )
  (wire (pts (xy 71.374 56.642) (xy 71.374 56.134))
    (stroke (width 0) (type default) (color 0 0 0 0))
    (uuid ba4d3eee-7594-4219-8d32-2f27908d7555)
  )
  (wire (pts (xy 171.45 53.848) (xy 171.45 54.356))
    (stroke (width 0) (type default) (color 0 0 0 0))
    (uuid bbe8d060-d0be-44aa-8830-b62b51aa3cbf)
  )
  (wire (pts (xy 82.042 47.498) (xy 82.042 53.848))
    (stroke (width 0) (type default) (color 0 0 0 0))
    (uuid d4a681f0-5136-4e0b-b661-5e86e1f27970)
  )
  (wire (pts (xy 174.752 45.974) (xy 175.26 45.974))
    (stroke (width 0) (type default) (color 0 0 0 0))
    (uuid da642264-0a01-414c-9952-280cdc89f181)
  )
  (wire (pts (xy 63.246 47.752) (xy 63.246 47.244))
    (stroke (width 0) (type default) (color 0 0 0 0))
    (uuid dba1756f-2a7c-4ba1-986a-c19a8aff8837)
  )
  (wire (pts (xy 171.45 44.45) (xy 170.942 44.45))
    (stroke (width 0) (type default) (color 0 0 0 0))
    (uuid ded71ba1-1750-4778-956c-66487c0d0e9f)
  )
  (wire (pts (xy 171.45 44.45) (xy 171.45 37.846))
    (stroke (width 0) (type default) (color 0 0 0 0))
    (uuid df636f91-f937-40dc-b026-f806a58ea422)
  )
  (wire (pts (xy 82.042 44.45) (xy 82.042 37.846))
    (stroke (width 0) (type default) (color 0 0 0 0))
    (uuid e27b10f4-ccb3-479a-b512-190f56dcfeb4)
  )
  (wire (pts (xy 171.45 47.498) (xy 171.45 53.848))
    (stroke (width 0) (type default) (color 0 0 0 0))
    (uuid e4a6596a-811e-46ca-8b17-c158a2fc6df8)
  )
  (wire (pts (xy 149.098 53.848) (xy 149.86 53.848))
    (stroke (width 0) (type default) (color 0 0 0 0))
    (uuid e578ce78-dff2-409c-9f93-62a83c5d0b0a)
  )
  (wire (pts (xy 171.45 37.846) (xy 173.228 37.846))
    (stroke (width 0) (type default) (color 0 0 0 0))
    (uuid e5d14f52-2b50-4e3d-8b53-3b01ea92d412)
  )
  (wire (pts (xy 135.636 53.848) (xy 136.398 53.848))
    (stroke (width 0) (type default) (color 0 0 0 0))
    (uuid e6a6f52f-fd0a-495e-aaed-bfd48af782ae)
  )
  (wire (pts (xy 95.25 53.848) (xy 96.012 53.848))
    (stroke (width 0) (type default) (color 0 0 0 0))
    (uuid e6f98f94-3dfe-4f01-b125-8ce4189b048a)
  )
  (wire (pts (xy 149.098 44.45) (xy 149.86 44.45))
    (stroke (width 0) (type default) (color 0 0 0 0))
    (uuid e8bd6102-eda5-4cfa-b8bc-d1ab049f0551)
  )
  (wire (pts (xy 82.042 44.45) (xy 82.042 44.704))
    (stroke (width 0) (type default) (color 0 0 0 0))
    (uuid e9043f16-c064-409b-8ec8-cd7373084991)
  )
  (wire (pts (xy 173.228 49.784) (xy 173.228 59.944))
    (stroke (width 0) (type default) (color 0 0 0 0))
    (uuid ec8e1530-88a4-40db-b5ca-18392ebce59e)
  )
  (wire (pts (xy 171.45 59.944) (xy 171.45 59.436))
    (stroke (width 0) (type default) (color 0 0 0 0))
    (uuid ecfc81e1-4a9f-4fe5-9895-b78411c86de2)
  )
  (wire (pts (xy 171.45 47.498) (xy 171.45 44.45))
    (stroke (width 0) (type default) (color 0 0 0 0))
    (uuid f2803268-1068-4cfb-a55a-cd75db2f7606)
  )
  (wire (pts (xy 182.88 37.846) (xy 182.88 38.354))
    (stroke (width 0) (type default) (color 0 0 0 0))
    (uuid f4307fb5-1229-4068-960f-e800eca2ffd4)
  )
  (wire (pts (xy 171.45 59.944) (xy 171.45 60.452))
    (stroke (width 0) (type default) (color 0 0 0 0))
    (uuid f6cbb4aa-519f-4be9-b0c4-044be533b655)
  )
  (wire (pts (xy 190.5 45.974) (xy 191.77 45.974))
    (stroke (width 0) (type default) (color 0 0 0 0))
    (uuid fd273da3-6e13-495e-b87e-8498abdcb2a4)
  )

  (symbol (lib_id "Device:R") (at 167.132 53.848 270) (mirror x) (unit 1)
    (in_bom yes) (on_board yes)
    (uuid 00c0b73b-43ed-4f27-a71a-3ed204f449cf)
    (property "Reference" "R6" (id 0) (at 165.862 55.88 90)
      (effects (font (size 1.27 1.27)) (justify left))
    )
    (property "Value" "15" (id 1) (at 166.116 53.848 90)
      (effects (font (size 1.27 1.27)) (justify left))
    )
    (property "Footprint" "Resistor_SMD:R_0805_2012Metric" (id 2) (at 167.132 55.626 90)
      (effects (font (size 1.27 1.27)) hide)
    )
    (property "Datasheet" "~" (id 3) (at 167.132 53.848 0)
      (effects (font (size 1.27 1.27)) hide)
    )
    (pin "1" (uuid 62c92ce5-a907-41d4-966b-3c946c507af3))
    (pin "2" (uuid cd49d11f-57f8-4e86-91a0-228ae32574ba))
  )

  (symbol (lib_id "power:GND") (at 71.374 57.15 0) (unit 1)
    (in_bom yes) (on_board yes)
    (uuid 03cfa2e5-fd22-49ce-8246-4927600440d7)
    (property "Reference" "#PWR01" (id 0) (at 71.374 63.5 0)
      (effects (font (size 1.27 1.27)) hide)
    )
    (property "Value" "GND" (id 1) (at 71.374 60.706 0))
    (property "Footprint" "" (id 2) (at 71.374 57.15 0)
      (effects (font (size 1.27 1.27)) hide)
    )
    (property "Datasheet" "" (id 3) (at 71.374 57.15 0)
      (effects (font (size 1.27 1.27)) hide)
    )
    (pin "1" (uuid fc9f9927-3633-48f4-8dda-393a673c12ed))
  )

  (symbol (lib_id "Device:LED_Series") (at 129.286 44.45 0) (unit 1)
    (in_bom yes) (on_board yes)
    (uuid 08038dfa-cd2f-4ba2-93f2-7af3ef57abe8)
    (property "Reference" "D14" (id 0) (at 124.46 40.386 0))
    (property "Value" "36V WH" (id 1) (at 130.048 40.386 0))
    (property "Footprint" "LED_SMD:LED_1210_3225Metric_Pad1.42x2.65mm_HandSolder" (id 2) (at 126.746 44.45 0)
      (effects (font (size 1.27 1.27)) hide)
    )
    (property "Datasheet" "~" (id 3) (at 126.746 44.45 0)
      (effects (font (size 1.27 1.27)) hide)
    )
    (pin "1" (uuid d325b69f-06f5-4881-8c38-721500d52f2b))
    (pin "2" (uuid 8089b229-394b-40d5-befc-ef9b20e441d5))
  )

  (symbol (lib_id "Device:R") (at 167.132 37.846 270) (unit 1)
    (in_bom yes) (on_board yes)
    (uuid 089c80a3-9f6a-4e88-8dbc-8ba746ee5bf0)
    (property "Reference" "R3" (id 0) (at 165.862 35.814 90)
      (effects (font (size 1.27 1.27)) (justify left))
    )
    (property "Value" "15" (id 1) (at 166.116 37.846 90)
      (effects (font (size 1.27 1.27)) (justify left))
    )
    (property "Footprint" "Resistor_SMD:R_0805_2012Metric" (id 2) (at 167.132 36.068 90)
      (effects (font (size 1.27 1.27)) hide)
    )
    (property "Datasheet" "~" (id 3) (at 167.132 37.846 0)
      (effects (font (size 1.27 1.27)) hide)
    )
    (pin "1" (uuid ee4202e1-3bbe-419d-b6e2-c7efb332bc0f))
    (pin "2" (uuid a4ce024d-796a-4e79-84a6-6edb8c79f799))
  )

  (symbol (lib_id "Device:LED_Series") (at 129.286 47.498 0) (mirror x) (unit 1)
    (in_bom yes) (on_board yes)
    (uuid 0c6f766d-2d80-45d3-af06-f55dfd81fdef)
    (property "Reference" "D15" (id 0) (at 124.46 51.562 0))
    (property "Value" "36V WH" (id 1) (at 130.048 51.562 0))
    (property "Footprint" "LED_SMD:LED_1210_3225Metric_Pad1.42x2.65mm_HandSolder" (id 2) (at 126.746 47.498 0)
      (effects (font (size 1.27 1.27)) hide)
    )
    (property "Datasheet" "~" (id 3) (at 126.746 47.498 0)
      (effects (font (size 1.27 1.27)) hide)
    )
    (pin "1" (uuid 150d939d-a022-4a5e-af42-b3c10a58cc6c))
    (pin "2" (uuid ac6ce934-7cd3-4b42-99e4-c937af1e6f73))
  )

  (symbol (lib_id "Device:LED_Series") (at 115.824 53.848 0) (mirror x) (unit 1)
    (in_bom yes) (on_board yes)
    (uuid 0d4c21e8-a7b1-4120-8d0a-c871328ed3f4)
    (property "Reference" "D12" (id 0) (at 110.998 57.912 0))
    (property "Value" "36V WH" (id 1) (at 116.586 57.912 0))
    (property "Footprint" "LED_SMD:LED_1210_3225Metric_Pad1.42x2.65mm_HandSolder" (id 2) (at 113.284 53.848 0)
      (effects (font (size 1.27 1.27)) hide)
    )
    (property "Datasheet" "~" (id 3) (at 113.284 53.848 0)
      (effects (font (size 1.27 1.27)) hide)
    )
    (pin "1" (uuid 1d14a40c-2e1a-4253-81e0-7b9d9bed96e9))
    (pin "2" (uuid cd05f28a-2c41-4b41-85ca-3a3f605ca1ce))
  )

  (symbol (lib_id "Device:LED_Series") (at 102.362 47.498 0) (mirror x) (unit 1)
    (in_bom yes) (on_board yes)
    (uuid 196d9e30-af27-43f1-9309-8c344465bec2)
    (property "Reference" "D7" (id 0) (at 97.536 51.562 0))
    (property "Value" "36V WH" (id 1) (at 103.124 51.562 0))
    (property "Footprint" "LED_SMD:LED_1210_3225Metric_Pad1.42x2.65mm_HandSolder" (id 2) (at 99.822 47.498 0)
      (effects (font (size 1.27 1.27)) hide)
    )
    (property "Datasheet" "~" (id 3) (at 99.822 47.498 0)
      (effects (font (size 1.27 1.27)) hide)
    )
    (pin "1" (uuid c0aaac0c-a57e-40ed-b9b5-7a459ef2eb69))
    (pin "2" (uuid e00cd502-e452-40ca-bbfa-f3cb8cc2d3cd))
  )

  (symbol (lib_id "Connector_Generic:Conn_01x01") (at 196.85 45.974 0) (unit 1)
    (in_bom yes) (on_board yes)
    (uuid 238bc136-aabe-4461-9128-a9bdf123934d)
    (property "Reference" "J1" (id 0) (at 195.834 43.688 0)
      (effects (font (size 1.27 1.27)) (justify left))
    )
    (property "Value" "AC" (id 1) (at 195.58 48.26 0)
      (effects (font (size 1.27 1.27)) (justify left))
    )
    (property "Footprint" "Connector_Wire:SolderWirePad_1x01_SMD_5x10mm" (id 2) (at 196.85 45.974 0)
      (effects (font (size 1.27 1.27)) hide)
    )
    (property "Datasheet" "~" (id 3) (at 196.85 45.974 0)
      (effects (font (size 1.27 1.27)) hide)
    )
    (pin "1" (uuid 2ecf56cd-50c7-4d6a-960e-237e5cb051c2))
  )

  (symbol (lib_id "Device:LED_Series") (at 115.824 44.45 0) (unit 1)
    (in_bom yes) (on_board yes)
    (uuid 23d14370-2c89-4b6a-97e0-66eaac65ffbc)
    (property "Reference" "D10" (id 0) (at 110.998 40.386 0))
    (property "Value" "36V WH" (id 1) (at 116.586 40.386 0))
    (property "Footprint" "LED_SMD:LED_1210_3225Metric_Pad1.42x2.65mm_HandSolder" (id 2) (at 113.284 44.45 0)
      (effects (font (size 1.27 1.27)) hide)
    )
    (property "Datasheet" "~" (id 3) (at 113.284 44.45 0)
      (effects (font (size 1.27 1.27)) hide)
    )
    (pin "1" (uuid 12b1c202-f8a6-4664-8212-498fb7bb5e36))
    (pin "2" (uuid 4e9c6cbb-e53c-4389-b151-36037473df7e))
  )

  (symbol (lib_id "Device:LED_Series") (at 88.9 53.848 0) (mirror x) (unit 1)
    (in_bom yes) (on_board yes)
    (uuid 36d32a9b-8017-4a91-968b-b585882625bf)
    (property "Reference" "D4" (id 0) (at 84.074 57.912 0))
    (property "Value" "36V WH" (id 1) (at 89.662 57.912 0))
    (property "Footprint" "LED_SMD:LED_1210_3225Metric_Pad1.42x2.65mm_HandSolder" (id 2) (at 86.36 53.848 0)
      (effects (font (size 1.27 1.27)) hide)
    )
    (property "Datasheet" "~" (id 3) (at 86.36 53.848 0)
      (effects (font (size 1.27 1.27)) hide)
    )
    (pin "1" (uuid 1b2812e2-1ef2-430f-88bb-449f52da0942))
    (pin "2" (uuid 2b26f501-383f-43d6-9e15-76629c13b128))
  )

  (symbol (lib_id "Device:R") (at 167.132 47.498 270) (mirror x) (unit 1)
    (in_bom yes) (on_board yes)
    (uuid 39263ee7-56d8-4245-95a2-ce79b0a2745b)
    (property "Reference" "R5" (id 0) (at 165.862 49.53 90)
      (effects (font (size 1.27 1.27)) (justify left))
    )
    (property "Value" "15" (id 1) (at 166.116 47.498 90)
      (effects (font (size 1.27 1.27)) (justify left))
    )
    (property "Footprint" "Resistor_SMD:R_0805_2012Metric" (id 2) (at 167.132 49.276 90)
      (effects (font (size 1.27 1.27)) hide)
    )
    (property "Datasheet" "~" (id 3) (at 167.132 47.498 0)
      (effects (font (size 1.27 1.27)) hide)
    )
    (pin "1" (uuid 2210933e-8cc9-4cea-9de7-afc1e7457fec))
    (pin "2" (uuid 92fb4a9a-c6c5-4d35-a9e8-4f38dde56154))
  )

  (symbol (lib_id "Device:R") (at 60.706 49.022 0) (unit 1)
    (in_bom yes) (on_board yes)
    (uuid 397387c6-64c9-41f2-9f67-9b983cf90fbe)
    (property "Reference" "R1" (id 0) (at 58.166 52.578 0)
      (effects (font (size 1.27 1.27)) (justify left))
    )
    (property "Value" "12" (id 1) (at 60.706 50.038 90)
      (effects (font (size 1.27 1.27)) (justify left))
    )
    (property "Footprint" "Resistor_SMD:R_0805_2012Metric" (id 2) (at 58.928 49.022 90)
      (effects (font (size 1.27 1.27)) hide)
    )
    (property "Datasheet" "~" (id 3) (at 60.706 49.022 0)
      (effects (font (size 1.27 1.27)) hide)
    )
    (pin "1" (uuid 50202d86-fa96-48e8-bfab-85cd344e4f97))
    (pin "2" (uuid a6a1367a-9814-4b0c-9091-56fb983aee7c))
  )

  (symbol (lib_id "power:GND") (at 171.45 60.452 0) (unit 1)
    (in_bom yes) (on_board yes)
    (uuid 3b100d4c-98cd-49bb-8ce8-1a3fc51f00de)
    (property "Reference" "#PWR02" (id 0) (at 171.45 66.802 0)
      (effects (font (size 1.27 1.27)) hide)
    )
    (property "Value" "GND" (id 1) (at 171.45 64.008 0))
    (property "Footprint" "" (id 2) (at 171.45 60.452 0)
      (effects (font (size 1.27 1.27)) hide)
    )
    (property "Datasheet" "" (id 3) (at 171.45 60.452 0)
      (effects (font (size 1.27 1.27)) hide)
    )
    (pin "1" (uuid 260085f7-ea38-4a88-9aca-9435eed563f6))
  )

  (symbol (lib_id "Device:LED_Series") (at 142.748 37.846 0) (unit 1)
    (in_bom yes) (on_board yes)
    (uuid 4ea21e43-1f60-45df-a944-a7158bd74c56)
    (property "Reference" "D17" (id 0) (at 137.922 33.782 0))
    (property "Value" "36V WH" (id 1) (at 143.51 33.782 0))
    (property "Footprint" "LED_SMD:LED_1210_3225Metric_Pad1.42x2.65mm_HandSolder" (id 2) (at 140.208 37.846 0)
      (effects (font (size 1.27 1.27)) hide)
    )
    (property "Datasheet" "~" (id 3) (at 140.208 37.846 0)
      (effects (font (size 1.27 1.27)) hide)
    )
    (pin "1" (uuid 3c71e0d4-5a6d-406f-9e00-8187be06d8f0))
    (pin "2" (uuid 611a0c6d-0c45-43a1-8813-cb8494357c97))
  )

  (symbol (lib_id "Connector_Generic:Conn_01x01") (at 196.85 54.356 0) (unit 1)
    (in_bom yes) (on_board yes)
    (uuid 5782d8a9-63e3-4773-bcbd-a611d1e7a4eb)
    (property "Reference" "J2" (id 0) (at 195.834 52.07 0)
      (effects (font (size 1.27 1.27)) (justify left))
    )
    (property "Value" "AC" (id 1) (at 195.58 56.642 0)
      (effects (font (size 1.27 1.27)) (justify left))
    )
    (property "Footprint" "Connector_Wire:SolderWirePad_1x01_SMD_5x10mm" (id 2) (at 196.85 54.356 0)
      (effects (font (size 1.27 1.27)) hide)
    )
    (property "Datasheet" "~" (id 3) (at 196.85 54.356 0)
      (effects (font (size 1.27 1.27)) hide)
    )
    (pin "1" (uuid 2b2c0fbb-f145-4a3c-ac3a-0b5659cf604a))
  )

  (symbol (lib_id "Device:C_Polarized_Small") (at 171.45 56.896 0) (unit 1)
    (in_bom yes) (on_board yes)
    (uuid 59206634-9ddb-471a-aa7a-8b78051432fb)
    (property "Reference" "C1" (id 0) (at 168.402 60.198 0)
      (effects (font (size 1.27 1.27)) (justify left))
    )
    (property "Value" "4.7uF" (id 1) (at 165.862 58.674 0)
      (effects (font (size 1.27 1.27)) (justify left))
    )
    (property "Footprint" "Capacitor_THT:CP_Radial_D10.0mm_P7.50mm" (id 2) (at 171.45 56.896 0)
      (effects (font (size 1.27 1.27)) hide)
    )
    (property "Datasheet" "~" (id 3) (at 171.45 56.896 0)
      (effects (font (size 1.27 1.27)) hide)
    )
    (pin "1" (uuid 77220a17-0880-446a-9f1c-7098375dfcfc))
    (pin "2" (uuid 847e70d9-41b1-467c-b3dd-1d10609aa57e))
  )

  (symbol (lib_id "Device:LED_Series") (at 156.21 53.848 0) (mirror x) (unit 1)
    (in_bom yes) (on_board yes)
    (uuid 5c0f2ea2-415c-4bb3-8232-469d4017497d)
    (property "Reference" "D24" (id 0) (at 151.384 57.912 0))
    (property "Value" "36V WH" (id 1) (at 156.972 57.912 0))
    (property "Footprint" "LED_SMD:LED_1210_3225Metric_Pad1.42x2.65mm_HandSolder" (id 2) (at 153.67 53.848 0)
      (effects (font (size 1.27 1.27)) hide)
    )
    (property "Datasheet" "~" (id 3) (at 153.67 53.848 0)
      (effects (font (size 1.27 1.27)) hide)
    )
    (pin "1" (uuid 9fe6ff3c-6989-472c-a3c1-7872f875f524))
    (pin "2" (uuid b254b5e9-f771-4b4a-b458-b798896d4dd5))
  )

  (symbol (lib_id "Device:LED_Series") (at 102.362 44.45 0) (unit 1)
    (in_bom yes) (on_board yes)
    (uuid 69a73bb2-7d5d-4da7-a79b-92674444075d)
    (property "Reference" "D6" (id 0) (at 97.536 40.386 0))
    (property "Value" "36V WH" (id 1) (at 103.124 40.386 0))
    (property "Footprint" "LED_SMD:LED_1210_3225Metric_Pad1.42x2.65mm_HandSolder" (id 2) (at 99.822 44.45 0)
      (effects (font (size 1.27 1.27)) hide)
    )
    (property "Datasheet" "~" (id 3) (at 99.822 44.45 0)
      (effects (font (size 1.27 1.27)) hide)
    )
    (pin "1" (uuid 5c021fb9-98d6-4354-b7bc-d1e4583a64ec))
    (pin "2" (uuid ba356e81-483a-4661-9aca-7326d93f9053))
  )

  (symbol (lib_id "belkin:SM2082ED") (at 72.644 48.514 0) (unit 1)
    (in_bom yes) (on_board yes)
    (uuid 6f6dce8c-ef2a-46b6-9f3f-8c4b1c807fcd)
    (property "Reference" "U1" (id 0) (at 77.978 42.418 0))
    (property "Value" "SM2082ED" (id 1) (at 71.12 42.418 0))
    (property "Footprint" "Package_SO:SO-8_3.9x4.9mm_P1.27mm" (id 2) (at 72.644 49.784 0)
      (effects (font (size 1.27 1.27)) hide)
    )
    (property "Datasheet" "" (id 3) (at 72.644 49.784 0)
      (effects (font (size 1.27 1.27)) hide)
    )
    (pin "1" (uuid 503e0641-83c2-41a2-b686-21faf6dbf2f1))
    (pin "2" (uuid 11b429a0-8cc9-4426-829d-b903897b23bb))
    (pin "3" (uuid cabd2e69-4302-4169-8d88-0803ff600d18))
    (pin "4" (uuid 5219a1f5-db41-4203-8d10-5149ae3d113c))
    (pin "5" (uuid 667bebc5-2351-4109-9190-5086d9f31828))
    (pin "7" (uuid 32b95d64-773e-452d-adca-03785180b73c))
  )

  (symbol (lib_id "Device:LED_Series") (at 156.21 37.846 0) (unit 1)
    (in_bom yes) (on_board yes)
    (uuid 72349816-3682-49fa-ae10-75c3770f4e3e)
    (property "Reference" "D21" (id 0) (at 151.384 33.782 0))
    (property "Value" "36V WH" (id 1) (at 156.972 33.782 0))
    (property "Footprint" "LED_SMD:LED_1210_3225Metric_Pad1.42x2.65mm_HandSolder" (id 2) (at 153.67 37.846 0)
      (effects (font (size 1.27 1.27)) hide)
    )
    (property "Datasheet" "~" (id 3) (at 153.67 37.846 0)
      (effects (font (size 1.27 1.27)) hide)
    )
    (pin "1" (uuid 66ca214b-c22a-440d-8ae7-28d933c7c2de))
    (pin "2" (uuid c75bbc8e-573d-46f6-9953-2d4f715bcb7b))
  )

  (symbol (lib_id "Device:LED_Series") (at 156.21 44.45 0) (unit 1)
    (in_bom yes) (on_board yes)
    (uuid 77faa75c-01c0-4ffe-b56a-1319f8d7a400)
    (property "Reference" "D22" (id 0) (at 151.384 40.386 0))
    (property "Value" "36V WH" (id 1) (at 156.972 40.386 0))
    (property "Footprint" "LED_SMD:LED_1210_3225Metric_Pad1.42x2.65mm_HandSolder" (id 2) (at 153.67 44.45 0)
      (effects (font (size 1.27 1.27)) hide)
    )
    (property "Datasheet" "~" (id 3) (at 153.67 44.45 0)
      (effects (font (size 1.27 1.27)) hide)
    )
    (pin "1" (uuid 0d0e19d3-2ecb-4797-97fe-dd1091ecd4e7))
    (pin "2" (uuid 8d5d0fe5-64ef-4899-a181-edd3103a2ef7))
  )

  (symbol (lib_id "Device:LED_Series") (at 102.362 53.848 0) (mirror x) (unit 1)
    (in_bom yes) (on_board yes)
    (uuid 84cff17d-e730-40c5-8861-75d05b6b9fc6)
    (property "Reference" "D8" (id 0) (at 97.536 57.912 0))
    (property "Value" "36V WH" (id 1) (at 103.124 57.912 0))
    (property "Footprint" "LED_SMD:LED_1210_3225Metric_Pad1.42x2.65mm_HandSolder" (id 2) (at 99.822 53.848 0)
      (effects (font (size 1.27 1.27)) hide)
    )
    (property "Datasheet" "~" (id 3) (at 99.822 53.848 0)
      (effects (font (size 1.27 1.27)) hide)
    )
    (pin "1" (uuid ac178327-d3d8-4037-8a66-814cffa8e75e))
    (pin "2" (uuid 531e3a68-3e89-474d-a764-edd6fb41efa4))
  )

  (symbol (lib_id "belkin:DB107") (at 182.88 45.974 90) (unit 1)
    (in_bom yes) (on_board yes)
    (uuid 8d57c86b-991e-4656-b8b2-e388de8391bf)
    (property "Reference" "D25" (id 0) (at 188.214 44.196 90))
    (property "Value" "DB107" (id 1) (at 182.88 45.974 90))
    (property "Footprint" "Diode_SMD:Diode_Bridge_OnSemi_SDIP-4L" (id 2) (at 182.88 45.974 0)
      (effects (font (size 1.27 1.27)) hide)
    )
    (property "Datasheet" "~" (id 3) (at 182.88 45.974 0)
      (effects (font (size 1.27 1.27)) hide)
    )
    (pin "1" (uuid 66550a4a-d2e2-4a1f-8f9f-c197b3061651))
    (pin "2" (uuid 27a3b442-8a4b-48dc-ba38-2685bf70e2ef))
    (pin "3" (uuid 76746cdd-cc2d-4560-bdd4-72c946482119))
    (pin "4" (uuid bfdd28df-9a6a-4671-9de8-cdeef1c99310))
  )

  (symbol (lib_id "Device:R") (at 173.228 45.974 0) (mirror y) (unit 1)
    (in_bom yes) (on_board yes)
    (uuid 9dd84f42-1453-40d9-9917-63e7677a11aa)
    (property "Reference" "R7" (id 0) (at 175.768 42.418 0)
      (effects (font (size 1.27 1.27)) (justify left))
    )
    (property "Value" "1M" (id 1) (at 173.228 46.99 90)
      (effects (font (size 1.27 1.27)) (justify left))
    )
    (property "Footprint" "Resistor_SMD:R_0805_2012Metric" (id 2) (at 175.006 45.974 90)
      (effects (font (size 1.27 1.27)) hide)
    )
    (property "Datasheet" "~" (id 3) (at 173.228 45.974 0)
      (effects (font (size 1.27 1.27)) hide)
    )
    (pin "1" (uuid a93628b3-1f05-46bf-a871-74266bb10ff9))
    (pin "2" (uuid 445a659d-d32e-4c6b-b9c0-9d2fcb975206))
  )

  (symbol (lib_id "Device:LED_Series") (at 88.9 44.45 0) (unit 1)
    (in_bom yes) (on_board yes)
    (uuid a2d46601-a21b-4bdd-a89b-9f137c01f9c4)
    (property "Reference" "D2" (id 0) (at 84.074 40.386 0))
    (property "Value" "36V WH" (id 1) (at 89.662 40.386 0))
    (property "Footprint" "LED_SMD:LED_1210_3225Metric_Pad1.42x2.65mm_HandSolder" (id 2) (at 86.36 44.45 0)
      (effects (font (size 1.27 1.27)) hide)
    )
    (property "Datasheet" "~" (id 3) (at 86.36 44.45 0)
      (effects (font (size 1.27 1.27)) hide)
    )
    (pin "1" (uuid 25491e52-605f-4f14-bc01-5b76571dbb0f))
    (pin "2" (uuid 04b0f9f8-9138-42a0-a976-f42e64ca354f))
  )

  (symbol (lib_id "Device:LED_Series") (at 142.748 47.498 0) (mirror x) (unit 1)
    (in_bom yes) (on_board yes)
    (uuid b1a454d4-75c8-45ce-9342-804967e703cd)
    (property "Reference" "D19" (id 0) (at 137.922 51.562 0))
    (property "Value" "36V WH" (id 1) (at 143.51 51.562 0))
    (property "Footprint" "LED_SMD:LED_1210_3225Metric_Pad1.42x2.65mm_HandSolder" (id 2) (at 140.208 47.498 0)
      (effects (font (size 1.27 1.27)) hide)
    )
    (property "Datasheet" "~" (id 3) (at 140.208 47.498 0)
      (effects (font (size 1.27 1.27)) hide)
    )
    (pin "1" (uuid e21b4cca-b712-4398-ac38-d317cf3dfcc6))
    (pin "2" (uuid b18b9a51-815a-4988-97e6-2ffe5d1d5bb7))
  )

  (symbol (lib_id "Device:R") (at 63.246 51.562 0) (unit 1)
    (in_bom yes) (on_board yes)
    (uuid b3085f54-fb44-4ff4-a7a6-ea9546585cbc)
    (property "Reference" "R2" (id 0) (at 60.706 55.118 0)
      (effects (font (size 1.27 1.27)) (justify left))
    )
    (property "Value" "12" (id 1) (at 63.246 52.578 90)
      (effects (font (size 1.27 1.27)) (justify left))
    )
    (property "Footprint" "Resistor_SMD:R_0805_2012Metric" (id 2) (at 61.468 51.562 90)
      (effects (font (size 1.27 1.27)) hide)
    )
    (property "Datasheet" "~" (id 3) (at 63.246 51.562 0)
      (effects (font (size 1.27 1.27)) hide)
    )
    (pin "1" (uuid 7262175a-6d44-4bb6-88a9-00d05da0af68))
    (pin "2" (uuid 596429c2-9098-4fab-b6b9-f5bdd85f7e30))
  )

  (symbol (lib_id "Device:LED_Series") (at 102.362 37.846 0) (unit 1)
    (in_bom yes) (on_board yes)
    (uuid b48a4d72-5897-418d-9dff-efb7b1ed2800)
    (property "Reference" "D5" (id 0) (at 97.536 33.782 0))
    (property "Value" "36V WH" (id 1) (at 103.124 33.782 0))
    (property "Footprint" "LED_SMD:LED_1210_3225Metric_Pad1.42x2.65mm_HandSolder" (id 2) (at 99.822 37.846 0)
      (effects (font (size 1.27 1.27)) hide)
    )
    (property "Datasheet" "~" (id 3) (at 99.822 37.846 0)
      (effects (font (size 1.27 1.27)) hide)
    )
    (pin "1" (uuid fa4bf81d-d3be-477e-a1bc-45e0df424c73))
    (pin "2" (uuid e78c422a-cd85-474d-bd1c-1bb02e4ef488))
  )

  (symbol (lib_id "Device:R") (at 187.198 54.356 270) (unit 1)
    (in_bom yes) (on_board yes)
    (uuid b6a29b8b-5838-4fb3-b2b2-b3ed91d42c58)
    (property "Reference" "R8" (id 0) (at 185.928 52.324 90)
      (effects (font (size 1.27 1.27)) (justify left))
    )
    (property "Value" "2" (id 1) (at 186.182 54.356 90)
      (effects (font (size 1.27 1.27)) (justify left))
    )
    (property "Footprint" "Resistor_THT:R_Axial_DIN0204_L3.6mm_D1.6mm_P5.08mm_Horizontal" (id 2) (at 187.198 52.578 90)
      (effects (font (size 1.27 1.27)) hide)
    )
    (property "Datasheet" "~" (id 3) (at 187.198 54.356 0)
      (effects (font (size 1.27 1.27)) hide)
    )
    (pin "1" (uuid dcd72bce-3d00-48b1-9dbf-fccfdd906cda))
    (pin "2" (uuid 4d261e9c-6c82-4f68-afc8-5ba16b69b2a7))
  )

  (symbol (lib_id "Device:R") (at 167.132 44.45 270) (unit 1)
    (in_bom yes) (on_board yes)
    (uuid ba5962bd-eb77-4389-a752-4798c1322375)
    (property "Reference" "R4" (id 0) (at 165.862 42.418 90)
      (effects (font (size 1.27 1.27)) (justify left))
    )
    (property "Value" "15" (id 1) (at 166.116 44.45 90)
      (effects (font (size 1.27 1.27)) (justify left))
    )
    (property "Footprint" "Resistor_SMD:R_0805_2012Metric" (id 2) (at 167.132 42.672 90)
      (effects (font (size 1.27 1.27)) hide)
    )
    (property "Datasheet" "~" (id 3) (at 167.132 44.45 0)
      (effects (font (size 1.27 1.27)) hide)
    )
    (pin "1" (uuid 8c7e2051-f4ed-4b8b-8bac-ee657e2196eb))
    (pin "2" (uuid 2cf9d4d9-88ec-4106-a414-9378342008c0))
  )

  (symbol (lib_id "Device:LED_Series") (at 115.824 47.498 0) (mirror x) (unit 1)
    (in_bom yes) (on_board yes)
    (uuid c0674853-299b-405d-838c-47454a31806f)
    (property "Reference" "D11" (id 0) (at 110.998 51.562 0))
    (property "Value" "36V WH" (id 1) (at 116.586 51.562 0))
    (property "Footprint" "LED_SMD:LED_1210_3225Metric_Pad1.42x2.65mm_HandSolder" (id 2) (at 113.284 47.498 0)
      (effects (font (size 1.27 1.27)) hide)
    )
    (property "Datasheet" "~" (id 3) (at 113.284 47.498 0)
      (effects (font (size 1.27 1.27)) hide)
    )
    (pin "1" (uuid 20edffb4-54af-45d9-9704-e8fbb0d4f60b))
    (pin "2" (uuid 4167587a-688e-41e7-9a5d-a4f49c562d4d))
  )

  (symbol (lib_id "Device:LED_Series") (at 129.286 53.848 0) (mirror x) (unit 1)
    (in_bom yes) (on_board yes)
    (uuid c5aa2257-972c-4859-aa78-ee9c8467790e)
    (property "Reference" "D16" (id 0) (at 124.46 57.912 0))
    (property "Value" "36V WH" (id 1) (at 130.048 57.912 0))
    (property "Footprint" "LED_SMD:LED_1210_3225Metric_Pad1.42x2.65mm_HandSolder" (id 2) (at 126.746 53.848 0)
      (effects (font (size 1.27 1.27)) hide)
    )
    (property "Datasheet" "~" (id 3) (at 126.746 53.848 0)
      (effects (font (size 1.27 1.27)) hide)
    )
    (pin "1" (uuid e79b5bec-1323-4681-8297-1f2cab2bcfd6))
    (pin "2" (uuid 4b809e57-a296-4ed7-9320-e4514e1199c4))
  )

  (symbol (lib_id "Device:LED_Series") (at 88.9 47.498 0) (mirror x) (unit 1)
    (in_bom yes) (on_board yes)
    (uuid d1a6b468-b533-461b-b114-17861b52bb28)
    (property "Reference" "D3" (id 0) (at 84.074 51.562 0))
    (property "Value" "36V WH" (id 1) (at 89.662 51.562 0))
    (property "Footprint" "LED_SMD:LED_1210_3225Metric_Pad1.42x2.65mm_HandSolder" (id 2) (at 86.36 47.498 0)
      (effects (font (size 1.27 1.27)) hide)
    )
    (property "Datasheet" "~" (id 3) (at 86.36 47.498 0)
      (effects (font (size 1.27 1.27)) hide)
    )
    (pin "1" (uuid 09ebe792-768d-4bb9-8d02-f4761842e699))
    (pin "2" (uuid f977be65-80ad-493f-b887-a17ae72a69aa))
  )

  (symbol (lib_id "Device:LED_Series") (at 88.9 37.846 0) (unit 1)
    (in_bom yes) (on_board yes)
    (uuid db65068a-7a2c-42a1-8bee-cd81db7ff362)
    (property "Reference" "D1" (id 0) (at 84.074 33.782 0))
    (property "Value" "36V WH" (id 1) (at 89.662 33.782 0))
    (property "Footprint" "LED_SMD:LED_1210_3225Metric_Pad1.42x2.65mm_HandSolder" (id 2) (at 86.36 37.846 0)
      (effects (font (size 1.27 1.27)) hide)
    )
    (property "Datasheet" "~" (id 3) (at 86.36 37.846 0)
      (effects (font (size 1.27 1.27)) hide)
    )
    (pin "1" (uuid fbace530-c8ca-4dba-94c5-e81e12481fff))
    (pin "2" (uuid d867e405-d33a-4eec-9d22-7cfea6c3d1fe))
  )

  (symbol (lib_id "Device:LED_Series") (at 129.286 37.846 0) (unit 1)
    (in_bom yes) (on_board yes)
    (uuid ec06bbed-edcb-4a3a-805f-c13e94149a76)
    (property "Reference" "D13" (id 0) (at 124.46 33.782 0))
    (property "Value" "36V WH" (id 1) (at 130.048 33.782 0))
    (property "Footprint" "LED_SMD:LED_1210_3225Metric_Pad1.42x2.65mm_HandSolder" (id 2) (at 126.746 37.846 0)
      (effects (font (size 1.27 1.27)) hide)
    )
    (property "Datasheet" "~" (id 3) (at 126.746 37.846 0)
      (effects (font (size 1.27 1.27)) hide)
    )
    (pin "1" (uuid 72af9af6-4408-41a2-9dae-ecc96f961c74))
    (pin "2" (uuid 4b66eb46-53cd-4f1c-8fb6-bbe12e96aac8))
  )

  (symbol (lib_id "Device:LED_Series") (at 156.21 47.498 0) (mirror x) (unit 1)
    (in_bom yes) (on_board yes)
    (uuid ec7b14e7-e020-4df1-8f5d-f3363c01af89)
    (property "Reference" "D23" (id 0) (at 151.384 51.562 0))
    (property "Value" "36V WH" (id 1) (at 156.972 51.562 0))
    (property "Footprint" "LED_SMD:LED_1210_3225Metric_Pad1.42x2.65mm_HandSolder" (id 2) (at 153.67 47.498 0)
      (effects (font (size 1.27 1.27)) hide)
    )
    (property "Datasheet" "~" (id 3) (at 153.67 47.498 0)
      (effects (font (size 1.27 1.27)) hide)
    )
    (pin "1" (uuid fcda1d2b-1e59-45ea-ac47-784762c65957))
    (pin "2" (uuid a069df90-0d03-430b-87c1-07662dffde5b))
  )

  (symbol (lib_id "Device:LED_Series") (at 115.824 37.846 0) (unit 1)
    (in_bom yes) (on_board yes)
    (uuid f4c35b59-62b1-4af6-b71b-01f795d59185)
    (property "Reference" "D9" (id 0) (at 110.998 33.782 0))
    (property "Value" "36V WH" (id 1) (at 116.586 33.782 0))
    (property "Footprint" "LED_SMD:LED_1210_3225Metric_Pad1.42x2.65mm_HandSolder" (id 2) (at 113.284 37.846 0)
      (effects (font (size 1.27 1.27)) hide)
    )
    (property "Datasheet" "~" (id 3) (at 113.284 37.846 0)
      (effects (font (size 1.27 1.27)) hide)
    )
    (pin "1" (uuid 68297d09-5fd9-4593-86e2-517ec80ff11c))
    (pin "2" (uuid 62c931c4-21a6-4de5-b850-5e14c47235cf))
  )

  (symbol (lib_id "Device:LED_Series") (at 142.748 53.848 0) (mirror x) (unit 1)
    (in_bom yes) (on_board yes)
    (uuid f876244b-a3ab-4249-870a-3283cc9ca63f)
    (property "Reference" "D20" (id 0) (at 137.922 57.912 0))
    (property "Value" "36V WH" (id 1) (at 143.51 57.912 0))
    (property "Footprint" "LED_SMD:LED_1210_3225Metric_Pad1.42x2.65mm_HandSolder" (id 2) (at 140.208 53.848 0)
      (effects (font (size 1.27 1.27)) hide)
    )
    (property "Datasheet" "~" (id 3) (at 140.208 53.848 0)
      (effects (font (size 1.27 1.27)) hide)
    )
    (pin "1" (uuid 0308c77a-6ce3-4b28-95b3-e0a0a725dc58))
    (pin "2" (uuid da3127c4-6ad9-4cb6-9f8f-f20c9704d01f))
  )

  (symbol (lib_id "Device:LED_Series") (at 142.748 44.45 0) (unit 1)
    (in_bom yes) (on_board yes)
    (uuid f9299c32-7ad3-4e06-b5ad-6d1ee215c0f4)
    (property "Reference" "D18" (id 0) (at 137.922 40.386 0))
    (property "Value" "36V WH" (id 1) (at 143.51 40.386 0))
    (property "Footprint" "LED_SMD:LED_1210_3225Metric_Pad1.42x2.65mm_HandSolder" (id 2) (at 140.208 44.45 0)
      (effects (font (size 1.27 1.27)) hide)
    )
    (property "Datasheet" "~" (id 3) (at 140.208 44.45 0)
      (effects (font (size 1.27 1.27)) hide)
    )
    (pin "1" (uuid 05bfb84a-8190-4243-8df7-b76f8486a4db))
    (pin "2" (uuid 791d5d5d-33d8-4afe-b5f5-d911ec010b01))
  )

  (sheet_instances
    (path "/" (page "1"))
  )

  (symbol_instances
    (path "/03cfa2e5-fd22-49ce-8246-4927600440d7"
      (reference "#PWR01") (unit 1) (value "GND") (footprint "")
    )
    (path "/3b100d4c-98cd-49bb-8ce8-1a3fc51f00de"
      (reference "#PWR02") (unit 1) (value "GND") (footprint "")
    )
    (path "/59206634-9ddb-471a-aa7a-8b78051432fb"
      (reference "C1") (unit 1) (value "4.7uF") (footprint "Capacitor_THT:CP_Radial_D10.0mm_P7.50mm")
    )
    (path "/db65068a-7a2c-42a1-8bee-cd81db7ff362"
      (reference "D1") (unit 1) (value "36V WH") (footprint "LED_SMD:LED_1210_3225Metric_Pad1.42x2.65mm_HandSolder")
    )
    (path "/a2d46601-a21b-4bdd-a89b-9f137c01f9c4"
      (reference "D2") (unit 1) (value "36V WH") (footprint "LED_SMD:LED_1210_3225Metric_Pad1.42x2.65mm_HandSolder")
    )
    (path "/d1a6b468-b533-461b-b114-17861b52bb28"
      (reference "D3") (unit 1) (value "36V WH") (footprint "LED_SMD:LED_1210_3225Metric_Pad1.42x2.65mm_HandSolder")
    )
    (path "/36d32a9b-8017-4a91-968b-b585882625bf"
      (reference "D4") (unit 1) (value "36V WH") (footprint "LED_SMD:LED_1210_3225Metric_Pad1.42x2.65mm_HandSolder")
    )
    (path "/b48a4d72-5897-418d-9dff-efb7b1ed2800"
      (reference "D5") (unit 1) (value "36V WH") (footprint "LED_SMD:LED_1210_3225Metric_Pad1.42x2.65mm_HandSolder")
    )
    (path "/69a73bb2-7d5d-4da7-a79b-92674444075d"
      (reference "D6") (unit 1) (value "36V WH") (footprint "LED_SMD:LED_1210_3225Metric_Pad1.42x2.65mm_HandSolder")
    )
    (path "/196d9e30-af27-43f1-9309-8c344465bec2"
      (reference "D7") (unit 1) (value "36V WH") (footprint "LED_SMD:LED_1210_3225Metric_Pad1.42x2.65mm_HandSolder")
    )
    (path "/84cff17d-e730-40c5-8861-75d05b6b9fc6"
      (reference "D8") (unit 1) (value "36V WH") (footprint "LED_SMD:LED_1210_3225Metric_Pad1.42x2.65mm_HandSolder")
    )
    (path "/f4c35b59-62b1-4af6-b71b-01f795d59185"
      (reference "D9") (unit 1) (value "36V WH") (footprint "LED_SMD:LED_1210_3225Metric_Pad1.42x2.65mm_HandSolder")
    )
    (path "/23d14370-2c89-4b6a-97e0-66eaac65ffbc"
      (reference "D10") (unit 1) (value "36V WH") (footprint "LED_SMD:LED_1210_3225Metric_Pad1.42x2.65mm_HandSolder")
    )
    (path "/c0674853-299b-405d-838c-47454a31806f"
      (reference "D11") (unit 1) (value "36V WH") (footprint "LED_SMD:LED_1210_3225Metric_Pad1.42x2.65mm_HandSolder")
    )
    (path "/0d4c21e8-a7b1-4120-8d0a-c871328ed3f4"
      (reference "D12") (unit 1) (value "36V WH") (footprint "LED_SMD:LED_1210_3225Metric_Pad1.42x2.65mm_HandSolder")
    )
    (path "/ec06bbed-edcb-4a3a-805f-c13e94149a76"
      (reference "D13") (unit 1) (value "36V WH") (footprint "LED_SMD:LED_1210_3225Metric_Pad1.42x2.65mm_HandSolder")
    )
    (path "/08038dfa-cd2f-4ba2-93f2-7af3ef57abe8"
      (reference "D14") (unit 1) (value "36V WH") (footprint "LED_SMD:LED_1210_3225Metric_Pad1.42x2.65mm_HandSolder")
    )
    (path "/0c6f766d-2d80-45d3-af06-f55dfd81fdef"
      (reference "D15") (unit 1) (value "36V WH") (footprint "LED_SMD:LED_1210_3225Metric_Pad1.42x2.65mm_HandSolder")
    )
    (path "/c5aa2257-972c-4859-aa78-ee9c8467790e"
      (reference "D16") (unit 1) (value "36V WH") (footprint "LED_SMD:LED_1210_3225Metric_Pad1.42x2.65mm_HandSolder")
    )
    (path "/4ea21e43-1f60-45df-a944-a7158bd74c56"
      (reference "D17") (unit 1) (value "36V WH") (footprint "LED_SMD:LED_1210_3225Metric_Pad1.42x2.65mm_HandSolder")
    )
    (path "/f9299c32-7ad3-4e06-b5ad-6d1ee215c0f4"
      (reference "D18") (unit 1) (value "36V WH") (footprint "LED_SMD:LED_1210_3225Metric_Pad1.42x2.65mm_HandSolder")
    )
    (path "/b1a454d4-75c8-45ce-9342-804967e703cd"
      (reference "D19") (unit 1) (value "36V WH") (footprint "LED_SMD:LED_1210_3225Metric_Pad1.42x2.65mm_HandSolder")
    )
    (path "/f876244b-a3ab-4249-870a-3283cc9ca63f"
      (reference "D20") (unit 1) (value "36V WH") (footprint "LED_SMD:LED_1210_3225Metric_Pad1.42x2.65mm_HandSolder")
    )
    (path "/72349816-3682-49fa-ae10-75c3770f4e3e"
      (reference "D21") (unit 1) (value "36V WH") (footprint "LED_SMD:LED_1210_3225Metric_Pad1.42x2.65mm_HandSolder")
    )
    (path "/77faa75c-01c0-4ffe-b56a-1319f8d7a400"
      (reference "D22") (unit 1) (value "36V WH") (footprint "LED_SMD:LED_1210_3225Metric_Pad1.42x2.65mm_HandSolder")
    )
    (path "/ec7b14e7-e020-4df1-8f5d-f3363c01af89"
      (reference "D23") (unit 1) (value "36V WH") (footprint "LED_SMD:LED_1210_3225Metric_Pad1.42x2.65mm_HandSolder")
    )
    (path "/5c0f2ea2-415c-4bb3-8232-469d4017497d"
      (reference "D24") (unit 1) (value "36V WH") (footprint "LED_SMD:LED_1210_3225Metric_Pad1.42x2.65mm_HandSolder")
    )
    (path "/8d57c86b-991e-4656-b8b2-e388de8391bf"
      (reference "D25") (unit 1) (value "DB107") (footprint "Diode_SMD:Diode_Bridge_OnSemi_SDIP-4L")
    )
    (path "/238bc136-aabe-4461-9128-a9bdf123934d"
      (reference "J1") (unit 1) (value "AC") (footprint "Connector_Wire:SolderWirePad_1x01_SMD_5x10mm")
    )
    (path "/5782d8a9-63e3-4773-bcbd-a611d1e7a4eb"
      (reference "J2") (unit 1) (value "AC") (footprint "Connector_Wire:SolderWirePad_1x01_SMD_5x10mm")
    )
    (path "/397387c6-64c9-41f2-9f67-9b983cf90fbe"
      (reference "R1") (unit 1) (value "12") (footprint "Resistor_SMD:R_0805_2012Metric")
    )
    (path "/b3085f54-fb44-4ff4-a7a6-ea9546585cbc"
      (reference "R2") (unit 1) (value "12") (footprint "Resistor_SMD:R_0805_2012Metric")
    )
    (path "/089c80a3-9f6a-4e88-8dbc-8ba746ee5bf0"
      (reference "R3") (unit 1) (value "15") (footprint "Resistor_SMD:R_0805_2012Metric")
    )
    (path "/ba5962bd-eb77-4389-a752-4798c1322375"
      (reference "R4") (unit 1) (value "15") (footprint "Resistor_SMD:R_0805_2012Metric")
    )
    (path "/39263ee7-56d8-4245-95a2-ce79b0a2745b"
      (reference "R5") (unit 1) (value "15") (footprint "Resistor_SMD:R_0805_2012Metric")
    )
    (path "/00c0b73b-43ed-4f27-a71a-3ed204f449cf"
      (reference "R6") (unit 1) (value "15") (footprint "Resistor_SMD:R_0805_2012Metric")
    )
    (path "/9dd84f42-1453-40d9-9917-63e7677a11aa"
      (reference "R7") (unit 1) (value "1M") (footprint "Resistor_SMD:R_0805_2012Metric")
    )
    (path "/b6a29b8b-5838-4fb3-b2b2-b3ed91d42c58"
      (reference "R8") (unit 1) (value "2") (footprint "Resistor_THT:R_Axial_DIN0204_L3.6mm_D1.6mm_P5.08mm_Horizontal")
    )
    (path "/6f6dce8c-ef2a-46b6-9f3f-8c4b1c807fcd"
      (reference "U1") (unit 1) (value "SM2082ED") (footprint "Package_SO:SO-8_3.9x4.9mm_P1.27mm")
    )
  )
)
